<?xml version="1.0" encoding="utf-8"?>
<!-- Generator: Adobe Illustrator 22.0.1, SVG Export Plug-In . SVG Version: 6.00 Build 0)  -->
<svg version="1.1" id="Layer_1" xmlns="http://www.w3.org/2000/svg" xmlns:xlink="http://www.w3.org/1999/xlink" x="0px" y="0px"
	 viewBox="0 0 169 42" style="enable-background:new 0 0 169 42;" xml:space="preserve">
<style type="text/css">
	.st0{fill:#FFFFFF;stroke:#FFFFFF;stroke-width:5.000000e-02;stroke-miterlimit:10;}
	.st1{fill:#FFFFFF;}
</style>
<g>
	<g>
		<g>
			<path class="st0" d="M52,13.8c-0.3-1-0.2-1.2-2.6-1.2h-1.7c-0.1,0.3-0.1,1.1-0.1,2v1.9h1.1c2,0,2-0.2,2.1-0.7H51
				c-0.1,0.3-0.1,0.7-0.1,1.1c0,0.2,0,0.5,0.1,0.7c0,0.1-0.2,0.1-0.2,0c-0.1-0.5-0.3-0.7-2.1-0.7h-1.1V19c0,2.3,0,2.2,1.5,2.3
				c0.1,0,0.1,0.2,0,0.2c-0.5-0.1-1.3-0.1-2-0.1c-0.9,0-1.5,0-2.1,0.1c-0.1,0-0.1-0.1,0-0.2c1.2-0.1,1.3-0.1,1.3-2.3v-4.3
				c0-2.3,0-2.2-1.6-2.3c-0.1,0-0.1-0.2,0-0.1c1.1,0.1,2.7,0.1,4.3,0.1c1.1,0,2.1-0.1,2.7-0.1c0.2,0,0.3,0,0.3,0.3
				C52,12.9,52,13.6,52,13.8C52.2,13.8,52,13.8,52,13.8z"/>
			<path class="st0" d="M49.1,21.7c-0.5-0.1-1.3-0.1-1.9-0.1l0,0c-0.9,0-1.5,0-2.1,0.1l0,0l0,0l0,0c-0.1,0-0.1-0.1-0.1-0.1l0,0
				c0-0.1,0-0.1,0.1-0.2l0,0l0,0l0,0c0.6-0.1,0.9-0.1,1.1-0.3l0,0c0.1-0.3,0.2-0.8,0.2-1.9l0,0v-4.3c0-1.1,0-1.7-0.2-1.9l0,0
				c-0.1-0.3-0.5-0.3-1.3-0.3l0,0c-0.1-0.1-0.1-0.1-0.1-0.2l0,0c0-0.1,0-0.1,0.1-0.1l0,0l0,0l0,0c1.1,0.1,2.7,0.1,4.2,0.1l0,0
				c1.1,0,2.1-0.1,2.7-0.1l0,0c0.2,0,0.4,0.1,0.5,0.3l0,0c0.1,0.3,0.1,1,0.1,1.3l0,0l0,0l0,0C52.1,14,52.1,14,52,14l0,0h-0.1l0,0
				c0,0-0.1,0-0.1-0.1l0,0l0,0c-0.1-0.5-0.2-0.7-0.5-0.9l0,0c-0.3-0.1-0.9-0.2-2.1-0.2l0,0h-1.7c-0.1,0.3-0.1,1-0.1,1.9l0,0v1.9h1
				c1,0,1.5-0.1,1.7-0.2l0,0c0.3-0.1,0.3-0.3,0.3-0.5l0,0l0,0c0-0.1,0.1-0.1,0.1-0.1l0,0c0,0,0,0,0.1,0l0,0h0.1l0,0h0.1l0,0
				c0,0,0.1,0,0.1,0.1l0,0l0,0l0,0c-0.1,0.3-0.1,0.7-0.1,1.1l0,0c0,0.2,0,0.5,0.1,0.7l0,0l0,0l0,0c0,0.1-0.1,0.1-0.2,0.1l0,0
				c-0.1,0-0.1,0-0.2-0.1l0,0c-0.1-0.3-0.1-0.4-0.3-0.5l0,0c-0.1,0-0.7,0-1.5,0l0,0h-1v2.1c0,1.1,0,1.7,0.2,1.9l0,0
				c0.1,0.3,0.5,0.3,1.3,0.3l0,0l0,0l0,0c0.1,0.1,0.1,0.1,0.1,0.2l0,0C49.3,21.5,49.2,21.7,49.1,21.7L49.1,21.7
				C49.1,21.7,49.1,21.7,49.1,21.7L49.1,21.7z M45,21.5c0.6-0.1,1.2-0.1,2.1-0.1l0,0c0.5,0,1.1,0,1.5,0.1l0,0
				c-0.5-0.1-0.8-0.1-1-0.4l0,0c-0.2-0.3-0.2-0.9-0.2-2l0,0v-2.3h1.2c0.9,0,1.4,0,1.7,0.1l0,0c0.3,0.1,0.4,0.3,0.5,0.6l0,0l0,0l0,0
				c0-0.2-0.1-0.5-0.1-0.7l0,0c0-0.3,0.1-0.7,0.1-1l0,0l0,0l0,0c-0.1,0.3-0.1,0.5-0.4,0.6l0,0c-0.3,0.1-0.8,0.2-1.8,0.2l0,0h-1.2v-2
				c0-0.9,0-1.6,0.1-2l0,0v-0.1h1.8c1.2,0,1.8,0.1,2.1,0.3l0,0c0.3,0.1,0.4,0.5,0.5,0.9l0,0l0,0l0,0c-0.1-0.4-0.1-1-0.1-1.3l0,0
				c-0.1-0.3-0.1-0.2-0.3-0.2l0,0c-0.5,0-1.5,0.1-2.7,0.1l0,0c-1.5,0-2.9,0-4.1-0.1l0,0c0.7,0.1,1.1,0.1,1.3,0.4l0,0
				c0.2,0.3,0.2,0.9,0.2,2l0,0v4.3c0,1.1,0,1.7-0.2,2l0,0C46,21.4,45.6,21.4,45,21.5L45,21.5L45,21.5L45,21.5z M49.1,21.5L49.1,21.5
				L49.1,21.5c-0.1,0-0.1,0-0.2,0l0,0C48.9,21.5,49,21.5,49.1,21.5L49.1,21.5z M50.9,15.9L50.9,15.9L50.9,15.9L50.9,15.9z M52,13.8
				L52,13.8L52,13.8L52,13.8z"/>
		</g>
		<g>
			<path class="st0" d="M59,21.7c-3.2,0-5.4-2.3-5.4-4.7c0-2.4,2.3-5,5.7-5c3.2,0,5.4,2.3,5.4,4.7C64.7,19.1,62.4,21.7,59,21.7z
				 M58.9,12.3c-2.3,0-4.1,1.5-4.1,4.2c0,3.2,2.3,4.9,4.5,4.9c2.3,0,4.1-1.5,4.1-4.2C63.4,14,61.1,12.3,58.9,12.3z"/>
			<path class="st0" d="M53.5,17c0-2.4,2.4-5.1,5.8-5.1l0,0c3.3,0,5.5,2.3,5.5,4.8l0,0c0,2.5-2.4,5.1-5.8,5.1l0,0v-0.1v-0.1
				c3.3,0,5.6-2.6,5.6-4.9l0,0c0-2.4-2.1-4.6-5.3-4.6l0,0C55.9,12.1,53.5,14.7,53.5,17L53.5,17c0.1,2.5,2.2,4.7,5.4,4.7l0,0v0.1v0.1
				C55.7,21.8,53.5,19.5,53.5,17L53.5,17z M54.7,16.5c0-1.3,0.5-2.4,1.2-3.1l0,0c0.7-0.7,1.8-1.1,3-1.1l0,0v0.1v0.1
				c-2.3,0-4,1.5-4,4.1l0,0c0,3.1,2.2,4.8,4.4,4.8l0,0c2.3,0,4-1.5,4-4.1l0,0c0-3.1-2.3-4.8-4.4-4.8l0,0v-0.1v-0.1
				c2.3,0,4.5,1.7,4.6,4.9l0,0c0,1.3-0.5,2.4-1.2,3.1l0,0c-0.7,0.7-1.8,1.1-3,1.1l0,0C57.1,21.5,54.7,19.8,54.7,16.5L54.7,16.5z"/>
		</g>
		<g>
			<path class="st0" d="M75.9,14.6v3.6c0,1.9-1.3,3.5-4.1,3.5c-2.3,0-4.2-1.3-4.2-3.7v-3.3c0-2.2-0.1-2.2-1.5-2.3
				c-0.1,0-0.1-0.2,0-0.1c0.7,0.1,1.3,0.1,2.3,0.1c0.7,0,1.4-0.1,1.9-0.1c0.1,0,0.1,0.1,0,0.1c-1.5,0.1-1.5,0.2-1.5,2.3v3.1
				c0,2.3,1.7,3.3,3.3,3.3c2.1,0,3.2-1.1,3.2-3.1v-3.4c0-1.9-0.1-2.1-1.5-2.2c-0.1,0-0.1-0.2,0-0.1c0.7,0.1,1.1,0.1,1.9,0.1
				c0.7,0,1.1-0.1,1.6-0.1c0.1,0,0.1,0.1,0,0.1C75.9,12.4,75.9,12.8,75.9,14.6z"/>
			<path class="st0" d="M67.5,18.1v-3.3c0-1.1,0-1.7-0.2-1.9l0,0c-0.1-0.3-0.5-0.3-1.2-0.3l0,0C66,12.4,66,12.3,66,12.2l0,0
				c0-0.1,0-0.1,0.1-0.1l0,0l0,0l0,0c0.7,0.1,1.3,0.1,2.3,0.1l0,0c0.7,0,1.4-0.1,1.9-0.1l0,0l0,0l0,0c0.1,0,0.1,0.1,0.1,0.1l0,0
				c0,0.1,0,0.1,0,0.1l0,0c0,0,0,0.1-0.1,0.1l0,0c-0.7,0.1-1.1,0.1-1.2,0.4l0,0c-0.1,0.3-0.2,0.8-0.2,1.9l0,0v3.1
				c0,2.3,1.7,3.3,3.3,3.3l0,0c2.1,0,3.1-1.1,3.1-3l0,0v-3.4c0-0.9-0.1-1.5-0.2-1.7l0,0c-0.2-0.3-0.5-0.3-1.2-0.4l0,0
				c-0.1,0-0.1-0.1-0.1-0.2l0,0c0-0.1,0-0.1,0.1-0.1l0,0l0,0l0,0c0.7,0.1,1,0.1,1.9,0.1l0,0c0.7,0,1.1-0.1,1.5-0.1l0,0l0,0l0,0
				c0.1,0,0.1,0.1,0.1,0.1l0,0c0,0.1,0,0.1-0.1,0.2l0,0c-0.7,0.1-1.1,0.2-1.3,0.5l0,0c-0.2,0.3-0.2,0.8-0.2,1.7l0,0v3.6
				c0,1-0.3,1.9-1.1,2.5l0,0c-0.7,0.7-1.7,1.1-3.1,1.1l0,0C69.5,21.8,67.5,20.5,67.5,18.1L67.5,18.1z M67.4,12.7
				c0.2,0.3,0.2,0.9,0.2,2l0,0v3.4c0,2.3,1.8,3.6,4.1,3.6l0,0c2.7,0,3.9-1.6,3.9-3.5l0,0v-3.7c0-0.9,0-1.4,0.3-1.8l0,0
				c0.1-0.3,0.4-0.4,0.8-0.5l0,0c-0.3,0-0.6,0.1-1,0.1l0,0c-0.7,0-1.1,0-1.5-0.1l0,0c0.5,0.1,0.7,0.2,0.9,0.5l0,0
				c0.3,0.3,0.3,0.9,0.3,1.8l0,0v3.5c0,1-0.3,1.8-0.9,2.4l0,0c-0.5,0.5-1.4,0.8-2.5,0.8l0,0c-1.6,0-3.4-1.1-3.4-3.5l0,0v-3.1
				c0-1.1,0-1.6,0.2-2l0,0c0.1-0.3,0.4-0.3,0.7-0.4l0,0c-0.4,0-0.9,0.1-1.3,0.1l0,0c-0.7,0-1.3,0-1.8-0.1l0,0
				C67,12.4,67.3,12.4,67.4,12.7L67.4,12.7z"/>
		</g>
		<g>
			<path class="st0" d="M88.8,14.7v4.3c0,0.7,0.1,2.1,0.1,2.7c0,0.1-0.1,0.1-0.2,0l-7.6-7.6v4.9c0,1.9,0,2.3,1.5,2.3
				c0,0,0.1,0.2,0,0.2c-0.5-0.1-0.9-0.1-1.5-0.1c-0.9,0-1.3,0-1.9,0.1c-0.1,0-0.1-0.1,0-0.2c1.4-0.1,1.5-0.3,1.5-2.3V14
				c0-0.7-1-1.5-1.7-1.6c0,0-0.1-0.2,0-0.1c0.7,0.1,1.2,0.1,2.1,0.1l7.4,7.3v-4.9c0-2.1-0.1-2.2-1.5-2.3c0,0-0.1-0.2,0-0.1
				c0.7,0.1,1,0.1,1.9,0.1c0.7,0,1.1-0.1,1.5-0.1c0.1,0,0.1,0.1,0,0.1C88.8,12.4,88.8,12.7,88.8,14.7z"/>
			<path class="st0" d="M88.6,21.7l-7.5-7.4v4.7c0,1,0,1.5,0.2,1.8l0,0c0.1,0.3,0.5,0.4,1.2,0.4l0,0l0,0l0,0
				c0.1,0.1,0.1,0.1,0.1,0.2l0,0c0,0.1,0,0.1-0.1,0.1l0,0l0,0l0,0c-0.5-0.1-0.9-0.1-1.5-0.1l0,0c-0.9,0-1.3,0-1.9,0.1l0,0l0,0l0,0
				c-0.1,0-0.1-0.1-0.1-0.1l0,0c0-0.1,0-0.1,0.1-0.2l0,0l0,0l0,0c0.7-0.1,1-0.1,1.2-0.4l0,0c0.2-0.3,0.2-0.8,0.2-1.9l0,0v-5
				c0-0.6-1-1.5-1.7-1.5l0,0c-0.1,0-0.1-0.1-0.1-0.1l0,0v-0.1l0,0c0-0.1,0-0.1,0.1-0.1l0,0l0,0l0,0c0.7,0.1,1.2,0.1,2.1,0.1l0,0H81
				l7.2,7.1v-4.7c0-1,0-1.6-0.2-1.9l0,0c-0.1-0.3-0.5-0.3-1.2-0.4l0,0c-0.1,0-0.1-0.1-0.1-0.1l0,0v-0.1l0,0c0-0.1,0-0.1,0.1-0.1l0,0
				l0,0l0,0c0.7,0.1,1,0.1,1.9,0.1l0,0c0.7,0,1.1-0.1,1.5-0.1l0,0l0,0l0,0c0.1,0,0.1,0.1,0.1,0.1l0,0c0,0.1,0,0.1-0.1,0.2l0,0
				c-0.7,0.1-1.1,0.1-1.2,0.5l0,0c-0.2,0.3-0.2,0.9-0.2,1.8l0,0v4.3c0,0.7,0.1,2.1,0.1,2.7l0,0c0,0.1-0.1,0.1-0.1,0.1l0,0
				C88.8,21.8,88.7,21.8,88.6,21.7L88.6,21.7z M88.8,21.6C88.8,21.6,88.8,21.7,88.8,21.6L88.8,21.6c-0.1-0.6-0.1-1.9-0.1-2.6l0,0
				v-4.3c0-1,0-1.5,0.2-1.9l0,0c0.1-0.3,0.4-0.4,0.8-0.5l0,0c-0.3,0-0.6,0.1-1,0.1l0,0c-0.7,0-1.1,0-1.5-0.1l0,0
				c0.5,0.1,0.7,0.2,0.9,0.5l0,0c0.2,0.3,0.2,0.9,0.2,1.9l0,0v5.1l-7.5-7.4c-0.8,0-1.4,0-2-0.1l0,0c0.8,0.1,1.7,1,1.7,1.7l0,0v5.1
				c0,1,0,1.6-0.2,1.9l0,0c-0.2,0.3-0.6,0.4-1.3,0.5l0,0l0,0l0,0c0.6-0.1,1-0.1,1.9-0.1l0,0c0.5,0,0.8,0,1.1,0.1l0,0
				c-0.5-0.1-0.7-0.2-0.9-0.5l0,0C81,20.7,81,20.1,81,19.1l0,0v-5.1L88.8,21.6L88.8,21.6z M79.1,21.5L79.1,21.5L79.1,21.5L79.1,21.5
				z M82.5,21.5L82.5,21.5L82.5,21.5c-0.1,0-0.1,0-0.1,0l0,0C82.4,21.5,82.5,21.5,82.5,21.5L82.5,21.5z"/>
		</g>
		<g>
			<path class="st0" d="M96.7,21.5c-0.5,0-1.9-0.1-2.3-0.1c-0.9,0-1.8,0-2.5,0.1c-0.1,0-0.1-0.1,0-0.2c1.4-0.1,1.5-0.1,1.5-2.3v-4.3
				c0-2.2-0.1-2.2-1.5-2.3c0,0-0.1-0.2,0-0.1c0.7,0.1,1.7,0.1,2.6,0.1c0.4,0,1.8-0.1,2.3-0.1c3.6,0,5.4,1.9,5.4,4.5
				C102.4,19.3,100.1,21.5,96.7,21.5z M96.5,12.6c-1.1,0-1.4,0.1-1.7,0.1c-0.1,0.5-0.1,0.9-0.1,2.1v4.9c0,1.5,0.2,1.6,2.5,1.6
				c2.2,0,3.9-1.5,3.9-4C101.2,14.1,99.3,12.6,96.5,12.6z"/>
			<path class="st0" d="M91.9,21.5c0-0.1,0-0.1,0.1-0.2l0,0l0,0l0,0c0.7-0.1,1.1-0.1,1.2-0.3l0,0c0.2-0.3,0.2-0.8,0.2-1.9l0,0v-4.3
				c0-1.1,0-1.7-0.2-1.9l0,0c-0.1-0.3-0.5-0.3-1.2-0.3l0,0c-0.1,0-0.1-0.1-0.1-0.1l0,0v-0.1l0,0c0-0.1,0-0.1,0.1-0.1l0,0l0,0l0,0
				c0.7,0.1,1.7,0.1,2.6,0.1l0,0c0.4,0,1.8-0.1,2.3-0.1l0,0c1.8,0,3.2,0.5,4.1,1.3l0,0c0.9,0.8,1.4,2,1.4,3.3l0,0
				c0,2.7-2.3,4.9-5.8,4.9l0,0v-0.1v-0.1c3.3,0,5.6-2.1,5.6-4.7l0,0c0-2.5-1.8-4.4-5.4-4.4l0,0c-0.5,0-2,0.1-2.3,0.1l0,0
				c-0.7,0-1.6,0-2.2-0.1l0,0c0.5,0.1,0.7,0.1,0.9,0.4l0,0c0.2,0.3,0.2,0.9,0.2,2l0,0v4.3c0,1.1,0,1.7-0.2,2l0,0
				c-0.2,0.3-0.6,0.3-1.3,0.4l0,0l0,0l0,0c0.7-0.1,1.5-0.1,2.4-0.1l0,0c0.4,0,1.7,0.1,2.3,0.1l0,0v0.1v0.1c-0.5,0-1.9-0.1-2.3-0.1
				l0,0c-0.9,0-1.8,0-2.5,0.1l0,0l0,0l0,0C91.9,21.7,91.9,21.5,91.9,21.5L91.9,21.5z M92,21.5L92,21.5L92,21.5L92,21.5z M95,21
				c-0.4-0.3-0.4-0.7-0.4-1.4l0,0v-4.9c0-1.1,0.1-1.6,0.1-2.1l0,0v-0.1h0.1c0.3,0,0.6-0.1,1.7-0.1l0,0v0.1v0.1c-1,0-1.3,0.1-1.6,0.1
				l0,0c-0.1,0.5-0.1,0.9-0.1,2l0,0v4.9c0,0.7,0.1,1.1,0.3,1.3l0,0c0.3,0.2,0.9,0.3,2.1,0.3l0,0c2.2,0,3.9-1.4,3.9-3.9l0,0
				c0-3-1.7-4.5-4.5-4.5l0,0v0v-0.1c1.5,0,2.6,0.4,3.5,1.2l0,0c0.8,0.8,1.3,2,1.3,3.5l0,0c0,1.3-0.5,2.3-1.2,3l0,0
				c-0.7,0.7-1.7,1.1-2.9,1.1l0,0C96,21.3,95.4,21.2,95,21L95,21z"/>
		</g>
		<g>
			<path class="st0" d="M113.8,21.5c-0.5-0.1-1.1-0.1-1.7-0.1c-0.9,0-1.7,0-2.3,0.1c-0.1,0-0.1-0.1,0-0.2c0.7-0.1,1.1-0.1,1.1-0.5
				c0-0.4-0.3-1.1-0.6-1.9l-0.5-1.2h-3.5l-0.5,1.2c-0.4,0.9-0.7,1.4-0.7,1.9c0,0.3,0.3,0.5,1,0.5c0.1,0,0.1,0.2,0,0.2
				c-0.5-0.1-0.8-0.1-1.5-0.1c-0.9,0-0.9,0-1.5,0.1c-0.1,0-0.1-0.1,0-0.2c1.1-0.1,1.5-0.7,2.2-2.3l3.3-7c0-0.1,0.1-0.1,0.2,0l2.8,7
				c0.7,1.8,1,2.3,2.3,2.3C113.9,21.4,113.9,21.6,113.8,21.5z M108.1,13.6l-1.8,3.9h3.3L108.1,13.6z"/>
			<path class="st0" d="M109.6,21.5c0-0.1,0-0.1,0.1-0.2l0,0l0,0l0,0c0.4-0.1,0.7-0.1,0.8-0.1l0,0c0.1-0.1,0.2-0.1,0.2-0.3l0,0
				c0-0.4-0.3-1.1-0.6-1.8l0,0l-0.5-1.1h-3.3l-0.5,1.1c-0.4,0.9-0.7,1.5-0.7,1.8l0,0c0,0.1,0.1,0.2,0.2,0.3l0,0
				c0.1,0.1,0.4,0.1,0.7,0.1l0,0l0,0l0,0c0.1,0.1,0.1,0.1,0.1,0.2l0,0c0,0.1,0,0.1-0.1,0.1l0,0l0,0l0,0c-0.5-0.1-0.8-0.1-1.5-0.1
				l0,0c-0.9,0-0.9,0-1.5,0.1l0,0l0,0l0,0c-0.1,0-0.1-0.1-0.1-0.1l0,0c0-0.1,0-0.1,0.1-0.2l0,0l0,0l0,0c1-0.1,1.4-0.6,2.1-2.3l0,0
				l3.3-7c0.1-0.1,0.1-0.1,0.2-0.1l0,0c0.1,0,0.1,0,0.2,0.1l0,0l2.8,7.1c0.7,1.8,0.9,2.2,2.2,2.3l0,0l0,0l0,0
				c0.1,0.1,0.1,0.1,0.1,0.2l0,0c0,0.1,0,0.1-0.1,0.1l0,0l0,0l0,0v-0.1v0.1c-0.5-0.1-1.1-0.1-1.7-0.1l0,0c-0.9,0-1.7,0-2.3,0.1l0,0
				l0,0l0,0C109.6,21.6,109.6,21.5,109.6,21.5L109.6,21.5z M106,21.5L106,21.5L106,21.5L106,21.5L106,21.5z M109.7,21.5
				c0.7-0.1,1.4-0.1,2.3-0.1l0,0c0.6,0,1.3,0.1,1.7,0.1l0,0l0,0l0,0c-1.3-0.1-1.6-0.7-2.3-2.4l0,0l-2.8-7l0,0l0,0l0,0l0,0l0,0l0,0
				l0,0l0,0l0,0l-3.3,7c-0.7,1.7-1.2,2.3-2.3,2.4l0,0l0,0l0,0c0.6-0.1,0.7-0.1,1.5-0.1l0,0c0.5,0,0.8,0,1.1,0.1l0,0
				c-0.2,0-0.3-0.1-0.5-0.1l0,0c-0.2-0.1-0.3-0.3-0.3-0.5l0,0c0-0.5,0.3-1,0.7-1.9l0,0l0.6-1.3h3.7l0.5,1.3c0.3,0.7,0.6,1.4,0.6,1.9
				l0,0c0,0.2-0.1,0.4-0.3,0.5l0,0C110.4,21.4,110.1,21.4,109.7,21.5L109.7,21.5L109.7,21.5L109.7,21.5z M106,21.5L106,21.5
				L106,21.5c-0.1,0-0.1,0-0.1,0l0,0C105.9,21.5,105.9,21.5,106,21.5L106,21.5z M106.2,17.7l1.9-4l0.1-0.2l1.6,4.2H106.2L106.2,17.7
				z M106.4,17.5h3l-1.4-3.6L106.4,17.5L106.4,17.5z M108,13.7L108,13.7L108,13.7L108,13.7z M108.6,12.1L108.6,12.1L108.6,12.1
				L108.6,12.1z"/>
		</g>
		<g>
			<path class="st0" d="M123.5,13c0,0.2,0,0.6,0.1,0.7h-0.2c-0.1-0.7-0.4-1-2.4-1h-1.7V19c0,2.1,0,2.3,1.5,2.3c0.1,0,0.1,0.2,0,0.2
				c-0.5-0.1-1.3-0.1-1.9-0.1c-0.9,0-1.6,0-2.3,0.1c-0.1,0-0.1-0.1,0-0.2c1.4-0.1,1.5-0.1,1.5-2.3v-6.3h-1.8c-2,0-2.3,0.3-2.5,1
				h-0.2c0.1-0.3,0.1-0.8,0.1-1.2c0-0.3,0-0.5-0.1-0.7c0-0.1,0.2,0,0.2,0c0.1,0.5,0.2,0.5,2.5,0.5h4.6c2.3,0,2.4-0.1,2.5-0.5
				c0,0,0.2-0.1,0.2,0C123.5,12.1,123.5,12.5,123.5,13z"/>
			<path class="st0" d="M116.4,21.5c0-0.1,0-0.1,0.1-0.2l0,0c0.7-0.1,1.1-0.1,1.2-0.3l0,0c0.2-0.3,0.2-0.8,0.2-1.9l0,0v-6.2h-1.7
				c-2,0-2.2,0.3-2.4,0.9l0,0l0,0c0,0.1-0.1,0.1-0.1,0.1l0,0c0,0,0,0-0.1,0l0,0h-0.1l0,0h-0.1l0,0c0,0-0.1,0-0.1-0.1l0,0l0,0l0,0
				c0.1-0.3,0.1-0.8,0.1-1.2l0,0c0-0.3,0-0.5-0.1-0.7l0,0l0,0l0,0c0.1-0.1,0.1-0.1,0.1-0.1l0,0c0.1,0,0.1,0,0.1,0l0,0
				c0,0,0.1,0,0.1,0.1l0,0l0,0c0.1,0.3,0.1,0.3,0.3,0.4l0,0c0.3,0.1,0.9,0.1,2,0.1l0,0h4.6c1.1,0,1.7,0,2.1-0.1l0,0
				c0.3-0.1,0.3-0.1,0.4-0.4l0,0l0,0c0-0.1,0.1-0.1,0.1-0.1l0,0c0,0,0,0,0.1,0l0,0h0.1l0,0h0.1l0,0c0,0,0.1,0,0.1,0.1l0,0l0,0l0,0
				l0,0c-0.1,0.3-0.1,0.7-0.1,1.2l0,0c0,0.2,0,0.6,0.1,0.7l0,0c0,0.1-0.1,0.1-0.1,0.1l0,0h-0.1l0,0c-0.1,0-0.1,0-0.1,0l0,0l0,0l0,0
				c0,0-0.1,0-0.1-0.1l0,0c-0.1-0.6-0.3-0.9-2.3-0.9l0,0h-1.6V19c0,1.1,0,1.6,0.2,1.9l0,0c0.1,0.3,0.5,0.3,1.2,0.4l0,0l0,0l0,0
				c0.1,0.1,0.1,0.1,0.1,0.2l0,0c0,0.1,0,0.1-0.1,0.1l0,0l0,0l0,0c-0.5-0.1-1.2-0.1-1.9-0.1l0,0c-0.9,0-1.6,0-2.3,0.1l0,0l0,0l0,0
				C116.4,21.7,116.4,21.5,116.4,21.5L116.4,21.5z M116.5,21.5L116.5,21.5L116.5,21.5L116.5,21.5z M120.7,21.5L120.7,21.5
				L120.7,21.5c-0.1,0-0.1,0-0.2,0l0,0C120.5,21.5,120.6,21.5,120.7,21.5L120.7,21.5z M116.6,21.5c0.7-0.1,1.3-0.1,2.2-0.1l0,0
				c0.5,0,1.1,0,1.5,0.1l0,0c-0.5-0.1-0.8-0.1-1-0.4l0,0c-0.2-0.3-0.2-0.9-0.2-2l0,0v-6.4h1.7c2,0,2.3,0.3,2.5,1l0,0l0,0l0,0
				c0-0.2-0.1-0.5-0.1-0.7l0,0c0-0.5,0.1-0.8,0.1-1.1l0,0l0,0l0,0c-0.1,0.3-0.2,0.4-0.5,0.5l0,0c-0.3,0.1-0.9,0.1-2.1,0.1l0,0h-4.5
				c-1.1,0-1.7,0-2.1-0.1l0,0c-0.3-0.1-0.4-0.3-0.5-0.5l0,0l0,0l0,0c0.1,0.2,0.1,0.5,0.1,0.7l0,0c0,0.4,0,0.8-0.1,1.1l0,0l0,0l0,0
				c0.2-0.7,0.6-1.1,2.5-1l0,0h1.8v6.4c0,1.1,0,1.7-0.2,2l0,0C117.6,21.4,117.3,21.4,116.6,21.5L116.6,21.5L116.6,21.5L116.6,21.5z"
				/>
		</g>
		<g>
			<path class="st0" d="M127.4,21.5c-0.9,0-1.6,0-2.3,0.1c-0.1,0-0.1-0.1,0-0.2c1.4-0.1,1.5-0.1,1.5-2.3v-4.3c0-2.2-0.1-2.2-1.5-2.3
				c0,0-0.1-0.2,0-0.1c0.7,0.1,1.3,0.1,2.3,0.1c0.7,0,1.4-0.1,1.9-0.1c0.1,0,0.1,0.1,0,0.1c-1.5,0.1-1.5,0.2-1.5,2.3v4.3
				c0,2.1,0,2.3,1.5,2.3c0.1,0,0.1,0.2,0,0.2C128.8,21.5,128,21.5,127.4,21.5z"/>
			<path class="st0" d="M125,21.5c0-0.1,0-0.1,0.1-0.2l0,0l0,0l0,0c0.7-0.1,1.1-0.1,1.2-0.3l0,0c0.2-0.3,0.2-0.8,0.2-1.9l0,0v-4.3
				c0-1.1,0-1.7-0.2-1.9l0,0c-0.1-0.3-0.5-0.3-1.2-0.3l0,0c-0.1,0-0.1-0.1-0.1-0.1l0,0v-0.1l0,0c0-0.1,0-0.1,0.1-0.1l0,0l0,0l0,0
				c0.7,0.1,1.3,0.1,2.3,0.1l0,0c0.7,0,1.4-0.1,1.9-0.1l0,0l0,0l0,0c0.1,0,0.1,0.1,0.1,0.1l0,0c0,0.1,0,0.1-0.1,0.2l0,0
				c-0.7,0.1-1.1,0.1-1.2,0.4l0,0c-0.1,0.3-0.2,0.8-0.2,1.9l0,0v4.3c0,1.1,0,1.6,0.2,1.9l0,0c0.1,0.3,0.5,0.3,1.2,0.3l0,0l0,0l0,0
				c0.1,0.1,0.1,0.1,0.1,0.2l0,0c0,0.1,0,0.1-0.1,0.1l0,0l0,0l0,0c-0.5-0.1-1.3-0.1-1.9-0.1l0,0v-0.1v-0.1c0.5,0,1,0,1.5,0.1l0,0
				c-0.5-0.1-0.7-0.1-0.9-0.4l0,0c-0.2-0.3-0.2-0.9-0.2-2l0,0v-4.3c0-1.1,0-1.6,0.2-2l0,0c0.1-0.3,0.4-0.3,0.7-0.4l0,0
				c-0.4,0-0.9,0.1-1.3,0.1l0,0c-0.7,0-1.3,0-1.8-0.1l0,0c0.4,0.1,0.7,0.1,0.9,0.4l0,0c0.2,0.3,0.2,0.9,0.2,2l0,0v4.3
				c0,1.1,0,1.7-0.2,2l0,0C126.2,21.4,125.8,21.4,125,21.5L125,21.5L125,21.5L125,21.5c0.7-0.1,1.4-0.1,2.3-0.1l0,0v0.1v0.1
				c-0.9,0-1.6,0-2.2,0.1l0,0l0,0l0,0C125.1,21.7,125,21.5,125,21.5L125,21.5z M125.2,21.5L125.2,21.5L125.2,21.5L125.2,21.5z
				 M129.3,21.5L129.3,21.5L129.3,21.5c-0.1,0-0.1,0-0.1,0l0,0C129.2,21.5,129.2,21.5,129.3,21.5L129.3,21.5z"/>
		</g>
		<g>
			<path class="st0" d="M136.7,21.7c-3.2,0-5.4-2.3-5.4-4.7c0-2.4,2.3-5,5.7-5c3.2,0,5.4,2.3,5.4,4.7
				C142.3,19.1,140,21.7,136.7,21.7z M136.6,12.3c-2.3,0-4.1,1.5-4.1,4.2c0,3.2,2.3,4.9,4.5,4.9c2.3,0,4.1-1.5,4.1-4.2
				C141.1,14,138.8,12.3,136.6,12.3z"/>
			<path class="st0" d="M131.2,17c0-2.4,2.4-5.1,5.8-5.1l0,0c3.3,0,5.5,2.3,5.5,4.8l0,0c0,2.5-2.4,5.1-5.8,5.1l0,0v-0.1v-0.1
				c3.3,0,5.6-2.6,5.6-4.9l0,0c0-2.4-2.1-4.6-5.4-4.6l0,0C133.6,12.1,131.2,14.7,131.2,17L131.2,17c0.1,2.5,2.2,4.7,5.4,4.7l0,0v0.1
				v0.1C133.4,21.8,131.2,19.5,131.2,17L131.2,17z M132.4,16.5c0-1.3,0.5-2.4,1.2-3.1l0,0c0.7-0.7,1.8-1.1,2.9-1.1l0,0v0.1v0.1
				c-2.3,0-4,1.5-4,4.1l0,0c0,3.1,2.2,4.8,4.4,4.8l0,0c2.3,0,4-1.5,4-4.1l0,0c0-3.1-2.3-4.8-4.4-4.8l0,0v-0.1v-0.1
				c2.3,0,4.5,1.7,4.6,4.9l0,0c0,1.3-0.5,2.4-1.2,3.1l0,0c-0.7,0.7-1.8,1.1-3,1.1l0,0C134.8,21.5,132.4,19.8,132.4,16.5L132.4,16.5z
				"/>
		</g>
		<g>
			<path class="st0" d="M153.8,14.7v4.3c0,0.7,0.1,2.1,0.1,2.7c0,0.1-0.1,0.1-0.2,0l-7.7-7.6v4.9c0,1.9,0,2.3,1.5,2.3
				c0,0,0.1,0.2,0,0.2c-0.5-0.1-0.9-0.1-1.5-0.1c-0.9,0-1.3,0-1.9,0.1c-0.1,0-0.1-0.1,0-0.2c1.4-0.1,1.5-0.3,1.5-2.3V14
				c0-0.7-1-1.5-1.7-1.6c0,0-0.1-0.2,0-0.1c0.7,0.1,1.2,0.1,2.1,0.1l7.4,7.3v-4.9c0-2.1-0.1-2.2-1.5-2.3c0,0-0.1-0.2,0-0.1
				c0.7,0.1,1,0.1,1.9,0.1c0.7,0,1.1-0.1,1.5-0.1c0.1,0,0.1,0.1,0,0.1C153.8,12.4,153.8,12.7,153.8,14.7z"/>
			<path class="st0" d="M153.7,21.7l-7.5-7.4v4.7c0,1,0,1.5,0.2,1.8l0,0c0.1,0.3,0.5,0.4,1.2,0.4l0,0l0,0l0,0
				c0.1,0.1,0.1,0.1,0.1,0.2l0,0c0,0.1,0,0.1-0.1,0.1l0,0l0,0l0,0c-0.5-0.1-0.9-0.1-1.5-0.1l0,0c-0.9,0-1.3,0-1.9,0.1l0,0l0,0l0,0
				c-0.1,0-0.1-0.1-0.1-0.1l0,0c0-0.1,0-0.1,0.1-0.2l0,0l0,0l0,0c0.7-0.1,1-0.1,1.2-0.4l0,0c0.2-0.3,0.2-0.8,0.2-1.9l0,0v-5
				c0-0.6-1-1.5-1.7-1.5l0,0c-0.1,0-0.1-0.1-0.1-0.1l0,0v-0.1l0,0c0-0.1,0-0.1,0.1-0.1l0,0l0,0l0,0c0.7,0.1,1.2,0.1,2.1,0.1l0,0h0.1
				l7.2,7.2v-4.7c0-1,0-1.6-0.2-1.9l0,0c-0.1-0.3-0.5-0.3-1.2-0.4l0,0c-0.1-0.2-0.1-0.2-0.1-0.3l0,0v-0.1l0,0c0-0.1,0-0.1,0.1-0.1
				l0,0l0,0l0,0c0.7,0.1,1,0.1,1.9,0.1l0,0c0.7,0,1.1-0.1,1.5-0.1l0,0l0,0l0,0c0.1,0,0.1,0.1,0.1,0.1l0,0c0,0.1,0,0.1-0.1,0.2l0,0
				c-0.7,0.1-1.1,0.1-1.2,0.5l0,0c-0.2,0.3-0.2,0.9-0.2,1.8l0,0v4.3c0,0.7,0.1,2.1,0.1,2.7l0,0c0,0.1-0.1,0.1-0.1,0.1l0,0
				C153.8,21.8,153.7,21.8,153.7,21.7L153.7,21.7z M153.8,21.6C153.8,21.6,153.8,21.7,153.8,21.6L153.8,21.6
				c-0.1-0.6-0.1-1.9-0.1-2.6l0,0v-4.3c0-1,0-1.5,0.2-1.9l0,0c0.1-0.3,0.4-0.4,0.8-0.5l0,0c-0.3,0-0.6,0.1-1,0.1l0,0
				c-0.7,0-1.1,0-1.5-0.1l0,0c0.5,0.1,0.7,0.2,0.9,0.5l0,0c0.2,0.3,0.2,0.9,0.2,1.9l0,0v5.1l-7.5-7.4c-0.8,0-1.4,0-2-0.1l0,0
				c0.8,0.1,1.7,1,1.7,1.7l0,0v5.1c0,1,0,1.6-0.2,1.9l0,0c-0.2,0.3-0.6,0.4-1.3,0.5l0,0l0,0l0,0c0.6-0.1,1-0.1,1.9-0.1l0,0
				c0.5,0,0.8,0,1.1,0.1l0,0c-0.5-0.1-0.7-0.2-0.9-0.5l0,0c-0.2-0.3-0.2-0.9-0.2-1.9l0,0v-5.1L153.8,21.6L153.8,21.6z M144.1,21.5
				L144.1,21.5L144.1,21.5L144.1,21.5L144.1,21.5z M147.6,21.5L147.6,21.5L147.6,21.5c-0.1,0-0.1,0-0.1,0l0,0
				C147.4,21.5,147.5,21.5,147.6,21.5L147.6,21.5z"/>
		</g>
		<g>
			<path class="st0" d="M159.9,21.7c-1.1,0-1.9-0.3-2.7-0.9c-0.1-0.1,0.1-0.9,0.1-1.9c0-0.1,0.2-0.1,0.2,0c0.1,1.5,1,2.5,2.6,2.5
				c1.1,0,2.1-0.5,2.1-1.7c0-2.4-4.6-2.4-4.6-5.1c0-1.3,1.2-2.6,2.9-2.6c0.9,0,1.5,0.2,2,0.5c0.1,0.1,0.2,0.6,0.2,1.5
				c0,0.1-0.2,0.1-0.2,0c-0.2-1.1-0.9-1.7-2.1-1.7c-1,0-1.9,0.6-1.9,1.5c0,2.3,4.5,2.3,4.5,5C163,20.4,161.7,21.7,159.9,21.7z"/>
			<path class="st0" d="M157.1,20.9c-0.1-0.1-0.1-0.1-0.1-0.2l0,0c0-0.3,0.1-0.9,0.1-1.7l0,0c0-0.1,0.1-0.1,0.1-0.1l0,0h0.1l0,0h0.1
				l0,0c0,0,0.1,0,0.1,0.1l0,0c0.1,1.5,0.9,2.4,2.5,2.4l0,0c1.1,0,2-0.5,2-1.7l0,0c0-1.1-1.1-1.7-2.3-2.3l0,0
				c-1.1-0.6-2.3-1.3-2.3-2.7l0,0c0-1.3,1.3-2.7,3-2.7l0,0c0.9,0,1.5,0.2,2,0.5l0,0c0.1,0.1,0.1,0.2,0.2,0.5l0,0
				c0,0.3,0.1,0.7,0.1,1.1l0,0c0,0.1-0.1,0.1-0.1,0.1l0,0h-0.1l0,0c0,0,0,0-0.1,0l0,0c-0.1,0-0.1,0-0.1-0.1l0,0l0,0l0,0
				c-0.2-1.1-0.9-1.6-2-1.6l0,0c-1,0-1.8,0.6-1.8,1.4l0,0c0,1.1,1.1,1.7,2.2,2.3l0,0c1.1,0.6,2.3,1.3,2.3,2.7l0,0
				c0,1.6-1.3,2.9-3.1,2.9l0,0v-0.1v-0.1c1.7,0,3-1.3,3-2.8l0,0c0-1.3-1.1-2-2.2-2.6l0,0c-1.1-0.6-2.3-1.2-2.3-2.4l0,0
				c0-1,0.9-1.6,2-1.6l0,0c1.1,0,1.9,0.6,2.1,1.7l0,0l0,0l0,0l0,0l0,0c0-0.9-0.1-1.3-0.1-1.4l0,0l0,0c-0.5-0.3-1.1-0.5-1.9-0.5l0,0
				c-1.7,0-2.9,1.3-2.9,2.5l0,0c0,1.3,1.1,1.9,2.3,2.5l0,0c1.1,0.6,2.3,1.3,2.3,2.5l0,0c0,1.3-1.1,1.8-2.1,1.8l0,0
				c-1.6,0-2.5-1-2.7-2.5l0,0l0,0l0,0l0,0l0,0c0,0.8-0.1,1.4-0.1,1.7l0,0c0,0.1,0,0.1,0,0.1l0,0c0.8,0.6,1.6,0.9,2.7,0.9l0,0v0.1
				v0.1l0,0l0,0C158.8,21.8,157.9,21.5,157.1,20.9L157.1,20.9z M157.3,20.7L157.3,20.7L157.3,20.7L157.3,20.7z"/>
		</g>
	</g>
	<g>
		<g>
			<path class="st0" d="M49.9,30.6c-1.7,0-2.6-1.1-2.9-2.2c-0.2,0-0.4,0-0.6,0c-0.2,0-0.2,0-0.3,0v0.9c0,1.1,0,1.1,0.7,1.1
				c0,0,0.1,0.1,0,0.1c-0.2,0-0.6-0.1-0.9-0.1c-0.5,0-0.8,0-1.1,0.1c-0.1,0,0-0.1,0-0.1c0.7-0.1,0.7-0.1,0.7-1.1v-2.1
				c0-0.8,0-1.1-0.5-1.1c-0.1,0-0.2,0-0.3,0c0,0-0.1-0.1,0-0.1c0.3-0.1,1.1-0.1,1.9-0.1c1.1,0,1.9,0.3,1.9,1.1c0,0.4-0.3,1-1.1,1.3
				c0.4,1,1.6,2.3,2.5,2.3C49.9,30.4,49.9,30.6,49.9,30.6z M46.4,25.9c-0.1,0-0.2,0-0.3,0C46,26.1,46,26.4,46,27v1.2
				c0.1,0,0.2,0,0.3,0c1.1,0,1.5-0.4,1.5-1C47.9,26.2,47.2,25.9,46.4,25.9z"/>
			<path class="st0" d="M46.9,28.4c-0.2,0-0.5,0-0.6,0l0,0c-0.1,0-0.2,0-0.3,0l0,0v0.8c0,1.1,0,1.1,0.7,1.1l0,0c0,0,0,0.1,0.1,0.1
				l0,0c0,0,0,0.1-0.1,0.1l0,0l0,0l0,0c-0.2,0-0.6-0.1-0.9-0.1l0,0c-0.5,0-0.8,0-1.1,0.1l0,0l0,0l0,0c-0.1,0-0.1-0.1-0.1-0.1l0,0
				c0,0,0-0.1,0.1-0.1l0,0c0.7-0.1,0.7,0,0.7-1.1l0,0V27c0-0.8,0-1.1-0.4-1.1l0,0c-0.1,0-0.2,0-0.3,0l0,0c-0.1,0-0.1-0.1-0.1-0.1
				l0,0c0,0,0-0.1,0.1-0.1l0,0c0.3-0.1,1.1-0.1,1.9-0.1l0,0c1.1,0,2,0.3,2,1.1l0,0c0,0.4-0.3,1-1.1,1.3l0,0c0.4,1,1.6,2.3,2.4,2.3
				l0,0c0.1,0,0.1,0.1,0.1,0.1l0,0c0,0,0,0.1-0.1,0.1l0,0l0,0l0,0l0,0l0,0C48.1,30.6,47.3,29.4,46.9,28.4L46.9,28.4z M46.9,28.3
				c0.3,1.1,1.2,2.2,2.9,2.2l0,0l0,0l0,0l0,0l0,0c-0.9,0-2.1-1.3-2.5-2.3l0,0l0,0l0,0c0.8-0.3,1-0.9,1-1.3l0,0
				c0-0.7-0.9-1.1-1.9-1.1l0,0c-0.8,0-1.5,0-1.9,0.1l0,0l0,0l0,0l0,0l0,0l0,0c0.1,0,0.2,0,0.3,0l0,0c0.5,0,0.5,0.3,0.5,1.1l0,0v2.1
				c0,1.1-0.1,1.1-0.7,1.2l0,0l0,0l0,0l0,0l0,0l0,0c0.3,0,0.7-0.1,1.1-0.1l0,0c0.3,0,0.7,0,0.9,0.1l0,0l0,0l0,0l0,0l0,0l0,0l0,0l0,0
				l0,0c-0.7-0.1-0.7-0.1-0.7-1.2l0,0v-0.9l0,0c0.1,0,0.1,0,0.3,0l0,0C46.5,28.4,46.7,28.3,46.9,28.3L46.9,28.3L46.9,28.3L46.9,28.3
				L46.9,28.3z M46,28.2L46,28.2V27c0-0.5,0-0.9,0.1-1l0,0l0,0l0,0c0.1,0,0.2,0,0.3,0l0,0l0,0l0,0c-0.1,0-0.2,0-0.3,0l0,0
				c0,0.1,0,0.5,0,1l0,0L46,28.2c0.1-0.1,0.2-0.1,0.3-0.1l0,0c1.1,0,1.5-0.4,1.5-1l0,0c0-0.9-0.7-1.2-1.4-1.2l0,0l0,0l0,0
				c0.7,0,1.5,0.3,1.5,1.3l0,0c0,0.6-0.4,1-1.5,1l0,0C46.2,28.2,46.1,28.2,46,28.2L46,28.2z"/>
		</g>
		<g>
			<path class="st0" d="M54.2,30.3c-0.1,0.1-0.1,0.1-0.2,0.1c-0.3,0-0.7,0-1.3,0c-0.7,0-1.5,0-2.1,0.1c-0.1,0,0-0.1,0-0.1
				c0.8-0.1,0.8-0.1,0.8-1.1v-2.1c0-1.1,0-1.1-0.8-1.1c0,0-0.1-0.1,0-0.1c0.5,0.1,1.3,0.1,2.1,0.1c0.5,0,1.1,0,1.5-0.1
				c0,0.1-0.1,0.2-0.1,0.4c0,0.1,0,0.2,0,0.3H54c-0.1-0.3-0.2-0.4-1.2-0.4h-0.7c0,0.2-0.1,0.5-0.1,1v0.9h0.8c0.9,0,0.8-0.1,0.8-0.3
				h0.1c0,0.1-0.1,0.3-0.1,0.5c0,0.1,0,0.2,0,0.3h-0.1c-0.1-0.2-0.1-0.3-0.8-0.3h-0.8v1.1c0,0.9,0.1,1,0.5,1h0.4
				c1.1,0,1.3-0.1,1.3-0.6h0.1C54.3,29.8,54.3,30.2,54.2,30.3z"/>
			<path class="st0" d="M50.6,30.4C50.6,30.4,50.6,30.4,50.6,30.4L50.6,30.4c0.9-0.1,0.8-0.1,0.8-1.2l0,0v-2.1c0-1.1,0-1-0.7-1.1
				l0,0c-0.1,0-0.1-0.1-0.1-0.1l0,0c0,0,0-0.1,0.1-0.1l0,0l0,0l0,0c0.5,0.1,1.3,0.1,2,0.1l0,0c0.5,0,1.1,0,1.5-0.1l0,0h0.1v0.1
				c0,0.1-0.1,0.2-0.1,0.4l0,0c0,0.1,0,0.2,0,0.3l0,0c0,0.1-0.1,0.1-0.1,0.1l0,0c0,0,0,0-0.1,0l0,0c0,0,0,0-0.1,0l0,0
				c-0.1-0.3-0.2-0.4-1.2-0.4l0,0h-0.7c0,0.2-0.1,0.5-0.1,0.9l0,0v0.9h0.8c0.9,0,0.7-0.1,0.8-0.3l0,0h0.1l0,0l0,0l0,0l0,0l0,0l0,0
				l0,0c0,0.1-0.1,0.3-0.1,0.5l0,0c0,0.1,0,0.2,0,0.3l0,0l0,0l0,0c0,0.1-0.1,0.1-0.1,0.1l0,0c0,0,0,0-0.1,0l0,0c0,0,0,0-0.1,0l0,0
				c-0.1-0.2-0.1-0.3-0.8-0.3l0,0h-0.5v1c0,0.9,0.1,1,0.5,1l0,0h0.4c1.2,0,1.2-0.1,1.3-0.6l0,0c0,0,0,0,0.1,0l0,0l0,0l0,0
				c0,0,0.1,0,0.1,0.1l0,0c0,0.2-0.1,0.5-0.1,0.7l0,0l0,0l0,0c-0.1,0.1-0.1,0.1-0.2,0.1l0,0c-0.3,0-0.7-0.1-1.3-0.1l0,0
				C51.9,30.4,51.2,30.4,50.6,30.4L50.6,30.4C50.7,30.4,50.7,30.4,50.6,30.4L50.6,30.4L50.6,30.4L50.6,30.4z M51.5,27.1v2.1
				c0,1.1-0.1,1.1-0.8,1.2l0,0l0,0l0,0l0,0l0,0l0,0l0,0l0,0c0.5,0,1.3-0.1,2.1-0.1l0,0c0.5,0,1,0.1,1.3,0.1l0,0c0.1,0,0.1,0,0.1-0.1
				l0,0l0,0c0.1-0.1,0.1-0.5,0.1-0.6l0,0l0,0l0,0l0,0l0,0c-0.1,0.5-0.2,0.6-1.3,0.6l0,0h-0.4c-0.2,0-0.3,0-0.4-0.2l0,0
				c-0.1-0.1-0.1-0.4-0.1-0.9l0,0v-1.1h0.8c0.7,0,0.8,0.1,0.8,0.3l0,0l0,0l0,0l0,0l0,0c0-0.1,0-0.2,0-0.3l0,0c0-0.1,0-0.3,0.1-0.4
				l0,0c0,0,0,0-0.1,0l0,0c-0.1,0.2-0.1,0.3-0.9,0.3l0,0H52V27c0-0.5,0-0.8,0.1-1l0,0l0,0h0.7c1,0,1.2,0.1,1.3,0.5l0,0l0,0l0,0l0,0
				l0,0c0-0.1,0-0.2,0-0.3l0,0c0-0.1,0-0.3,0.1-0.3l0,0c-0.4,0-0.9,0.1-1.4,0.1l0,0c-0.7,0-1.5,0-2.1-0.1l0,0l0,0l0,0l0,0l0,0l0,0
				C51.4,25.9,51.5,25.9,51.5,27.1L51.5,27.1z M54.3,29.6L54.3,29.6L54.3,29.6L54.3,29.6z"/>
		</g>
		<g>
			<path class="st0" d="M60.4,30.2c-0.3,0.2-0.7,0.4-1.7,0.4c-1.7,0-2.8-1.1-2.8-2.3c0-1.1,1.2-2.5,2.8-2.5c0.7,0,1.4,0.3,1.6,0.4
				c0.1,0.1,0.1,0.5,0.1,1h-0.1c-0.1-0.5-0.7-1.2-1.8-1.2c-1.1,0-2,0.7-2,2.1c0,1.6,1.1,2.4,2.2,2.4c0.8,0,1.5-0.5,1.6-1.2h0.1
				C60.6,29.6,60.5,30.1,60.4,30.2z"/>
			<path class="st0" d="M56,28.2c0-1.2,1.2-2.5,2.8-2.5l0,0c0.7,0,1.4,0.3,1.6,0.4l0,0c0.1,0.1,0.1,0.5,0.1,1l0,0l0,0l0,0
				c0,0.1-0.1,0.1-0.1,0.1l0,0l0,0l0,0l0,0l0,0l0,0l0,0c-0.1-0.5-0.7-1.1-1.8-1.1l0,0c-1.1,0-1.9,0.7-1.9,2l0,0
				c0,1.5,1.1,2.3,2.2,2.3l0,0c0.8,0,1.5-0.5,1.6-1.1l0,0l0,0l0,0l0,0l0,0c0,0,0.1,0,0.1,0.1l0,0c0,0.5-0.1,0.9-0.1,1l0,0l0,0
				c-0.3,0.2-0.7,0.4-1.7,0.4l0,0C57.1,30.6,56,29.4,56,28.2L56,28.2z M58.8,25.7c-1.6,0-2.8,1.3-2.8,2.5l0,0c0,1.2,1.1,2.3,2.7,2.3
				l0,0c0.9,0,1.3-0.2,1.6-0.4l0,0l0,0l0,0c0.1,0,0.1-0.5,0.1-0.9l0,0l0,0l0,0l0,0l0,0c-0.1,0.7-0.9,1.2-1.7,1.2l0,0
				c-1.1,0-2.2-0.8-2.2-2.4l0,0c0-1.3,0.9-2.1,2-2.1l0,0c1.1,0,1.7,0.6,1.9,1.2l0,0l0,0l0,0l0,0l0,0c0-0.4-0.1-0.9-0.1-0.9l0,0
				C60.2,26,59.5,25.7,58.8,25.7L58.8,25.7L58.8,25.7L58.8,25.7z M60.6,27.1L60.6,27.1L60.6,27.1L60.6,27.1L60.6,27.1z"/>
		</g>
		<g>
			<path class="st0" d="M65,30.5c-1.5,0-2.7-1.1-2.7-2.3c0-1.1,1.1-2.5,2.8-2.5c1.6,0,2.7,1.1,2.7,2.3C67.8,29.2,66.6,30.5,65,30.5z
				 M65,25.9c-1.1,0-2,0.7-2,2.1c0,1.6,1.1,2.4,2.2,2.4c1.1,0,2-0.7,2-2.1C67.2,26.8,66,25.9,65,25.9z"/>
			<path class="st0" d="M62.4,28.2c0-1.2,1.1-2.5,2.8-2.5l0,0c1.6,0,2.7,1.1,2.7,2.3l0,0c0,1.2-1.1,2.5-2.8,2.5l0,0l0,0l0,0
				c1.6,0,2.7-1.3,2.7-2.4l0,0c0-1.2-1.1-2.3-2.6-2.3l0,0C63.6,25.7,62.4,27.1,62.4,28.2L62.4,28.2c0.1,1.2,1.1,2.3,2.7,2.3l0,0l0,0
				l0,0C63.4,30.6,62.4,29.4,62.4,28.2L62.4,28.2z M63,28c0-1.3,0.9-2.1,2-2.1l0,0l0,0l0,0C63.8,25.9,63,26.7,63,28L63,28
				c0.1,1.5,1.1,2.3,2.2,2.3l0,0c1.1,0,1.9-0.7,1.9-2l0,0c0-1.5-1.1-2.3-2.2-2.3l0,0l0,0l0,0c1.1,0,2.2,0.8,2.2,2.4l0,0
				c0,1.3-0.9,2.1-2,2.1l0,0C64.1,30.4,63,29.6,63,28L63,28z"/>
		</g>
		<g>
			<path class="st0" d="M73.4,27.1l-1.6,3.4h-0.1l-1.6-3.4c-0.4-0.9-0.5-1.1-1.1-1.1v-0.1c0.2,0,0.5,0.1,0.9,0.1
				c0.5,0,0.9,0,1.1-0.1c0.1,0,0,0.1,0,0.1c-0.3,0.1-0.5,0.1-0.5,0.3c0,0.1,0.1,0.5,0.3,0.9l1.1,2.6l1.2-2.6
				c0.3-0.5,0.3-0.7,0.3-0.9c0-0.2-0.1-0.2-0.5-0.3c0,0-0.1-0.1,0-0.1c0.2,0,0.4,0.1,0.7,0.1c0.5,0,0.5,0,0.7-0.1c0.1,0,0,0.1,0,0.1
				C73.9,25.9,73.8,26.1,73.4,27.1z"/>
			<path class="st0" d="M71.7,30.5l-1.5-3.4c-0.4-0.9-0.5-1.1-1.1-1.1l0,0c-0.1,0-0.1-0.1-0.1-0.1l0,0c0,0,0-0.1,0.1-0.1l0,0l0,0
				l0,0c0.2,0,0.5,0.1,0.9,0.1l0,0c0.5,0,0.9,0,1.1-0.1l0,0l0,0l0,0c0.1,0,0.1,0.1,0.1,0.1l0,0c0,0,0,0.1-0.1,0.1l0,0
				c-0.4,0.1-0.5,0.1-0.5,0.2l0,0c0,0.1,0.1,0.5,0.3,0.9l0,0l1.1,2.5l1.2-2.5c0.3-0.5,0.3-0.7,0.3-0.9l0,0c0-0.1-0.1-0.2-0.5-0.2
				l0,0c-0.1,0-0.1-0.1-0.1-0.1l0,0c0,0,0-0.1,0.1-0.1l0,0l0,0l0,0c0.2,0,0.4,0.1,0.7,0.1l0,0c0.5,0,0.4,0,0.7-0.1l0,0l0,0l0,0
				c0.1,0,0.1,0.1,0.1,0.1l0,0c0,0,0,0.1-0.1,0.1l0,0c-0.5,0.1-0.6,0.2-1.1,1.1l0,0l0,0l0,0l-1.6,3.4H71.7L71.7,30.5L71.7,30.5
				L71.7,30.5C71.7,30.6,71.7,30.5,71.7,30.5L71.7,30.5z M70.2,27.1l1.5,3.4l0,0l0,0l0,0l0,0l0,0l0,0l1.6-3.4
				c0.4-0.9,0.5-1.1,1.1-1.2l0,0l0,0l0,0l0,0l0,0c-0.3,0.1-0.3,0.1-0.7,0.1l0,0c-0.3,0-0.5,0-0.7-0.1l0,0l0,0l0,0l0,0l0,0l0,0
				c0.3,0,0.5,0.1,0.5,0.3l0,0c0,0.2-0.1,0.4-0.3,0.9l0,0l-1.3,2.7l-1.1-2.7c-0.2-0.5-0.3-0.7-0.3-0.9l0,0c0-0.2,0.2-0.3,0.5-0.3
				l0,0l0,0l0,0l0,0c-0.3,0.1-0.7,0.1-1.1,0.1l0,0c-0.3,0-0.6,0-0.9-0.1l0,0l0,0l0,0l0,0l0,0C69.7,25.9,69.8,26.2,70.2,27.1
				L70.2,27.1z M74.5,25.9L74.5,25.9L74.5,25.9L74.5,25.9z M74.5,25.9L74.5,25.9L74.5,25.9L74.5,25.9L74.5,25.9L74.5,25.9z"/>
		</g>
		<g>
			<path class="st0" d="M79.2,30.3c-0.1,0.1-0.1,0.1-0.2,0.1c-0.3,0-0.7,0-1.3,0c-0.7,0-1.5,0-2.1,0.1c-0.1,0,0-0.1,0-0.1
				c0.8-0.1,0.8-0.1,0.8-1.1v-2.1c0-1.1,0-1.1-0.8-1.1c0,0-0.1-0.1,0-0.1c0.5,0.1,1.3,0.1,2.1,0.1c0.5,0,1.1,0,1.5-0.1
				c0,0.1-0.1,0.2-0.1,0.4c0,0.1,0,0.2,0,0.3h-0.1c-0.1-0.3-0.2-0.4-1.2-0.4H77c0,0.2-0.1,0.5-0.1,1v0.9h0.8c0.9,0,0.8-0.1,0.8-0.3
				h0.1c0,0.1-0.1,0.3-0.1,0.5c0,0.1,0,0.2,0,0.3h-0.1c-0.1-0.2-0.1-0.3-0.8-0.3h-0.8v1.1c0,0.9,0.1,1,0.5,1h0.4
				c1.1,0,1.3-0.1,1.3-0.6h0.1C79.3,29.8,79.2,30.2,79.2,30.3z"/>
			<path class="st0" d="M75.6,30.4C75.5,30.4,75.5,30.4,75.6,30.4L75.6,30.4c-0.1-0.1-0.1-0.1,0-0.1l0,0c0.8-0.1,0.7,0,0.7-1.1l0,0
				V27c0-1.1,0-1-0.7-1.1l0,0c-0.1,0-0.1-0.1-0.1-0.1l0,0c0,0,0-0.1,0.1-0.1l0,0l0,0l0,0c0.5,0.1,1.3,0.1,2,0.1l0,0
				c0.5,0,1.1,0,1.5-0.1l0,0h0.1v0.1c0,0.1-0.1,0.2-0.1,0.4l0,0c0,0.1,0,0.2,0,0.3l0,0c0,0.1-0.1,0.1-0.1,0.1l0,0c0,0,0,0-0.1,0l0,0
				c0,0,0,0-0.1,0l0,0c-0.1-0.3-0.2-0.4-1.2-0.4l0,0h-0.7c0,0.2-0.1,0.5-0.1,0.9l0,0V28h0.8c0.9,0,0.7-0.1,0.8-0.3l0,0h0.1l0,0l0,0
				l0,0l0,0l0,0l0,0l0,0c0,0.1-0.1,0.3-0.1,0.5l0,0c0,0.1,0,0.2,0,0.3l0,0l0,0l0,0c0,0.1-0.1,0.1-0.1,0.1l0,0c0,0,0,0-0.1,0l0,0
				c0,0,0,0-0.1,0l0,0c-0.1-0.2-0.1-0.3-0.8-0.3l0,0h-0.8v1c0,0.9,0.1,1,0.5,1l0,0h0.4c1.2,0,1.2-0.1,1.3-0.6l0,0c0,0,0,0,0.1,0l0,0
				l0,0l0,0c0,0,0.1,0,0.1,0.1l0,0c0,0.2-0.1,0.5-0.1,0.7l0,0l0,0l0,0c-0.1,0.1-0.1,0.1-0.2,0.1l0,0c-0.3,0-0.7-0.1-1.3-0.1l0,0
				C76.9,30.4,76.1,30.4,75.6,30.4L75.6,30.4L75.6,30.4L75.6,30.4L75.6,30.4L75.6,30.4z M75.6,30.4L75.6,30.4L75.6,30.4L75.6,30.4
				L75.6,30.4z M76.4,27.1v2.1c0,1.1-0.1,1.1-0.8,1.2l0,0l0,0l0,0l0,0l0,0l0,0c0.5-0.1,1.3-0.1,2.1-0.1l0,0c0.5,0,1,0.1,1.3,0.1l0,0
				c0.1,0,0.1,0,0.1-0.1l0,0l0,0c0.1-0.1,0.1-0.5,0.1-0.6l0,0l0,0l0,0l0,0l0,0c-0.1,0.5-0.2,0.6-1.4,0.6l0,0h-0.4
				c-0.2,0-0.3,0-0.4-0.2l0,0c-0.1-0.1-0.1-0.4-0.1-0.9l0,0v-1.1h0.8c0.7,0,0.8,0.1,0.8,0.3l0,0l0,0l0,0l0,0l0,0c0-0.1,0-0.2,0-0.3
				l0,0c0-0.1,0-0.3,0.1-0.4l0,0c0,0,0,0-0.1,0l0,0c-0.1,0.2-0.1,0.3-0.9,0.3l0,0h-0.8V27c0-0.5,0-0.8,0.1-1l0,0l0,0h0.7
				c1,0,1.2,0.1,1.3,0.5l0,0l0,0l0,0l0,0l0,0c0-0.1,0-0.2,0-0.3l0,0c0-0.1,0-0.3,0.1-0.3l0,0c-0.4,0-0.9,0.1-1.4,0.1l0,0
				c-0.7,0-1.5,0-2.1-0.1l0,0l0,0l0,0l0,0l0,0l0,0C76.3,25.9,76.4,25.9,76.4,27.1L76.4,27.1z M79.2,29.6L79.2,29.6L79.2,29.6
				L79.2,29.6z"/>
		</g>
		<g>
			<path class="st0" d="M86.4,30.6c-1.7,0-2.6-1.1-2.9-2.2c-0.2,0.1-0.5,0.1-0.6,0.1c-0.2,0-0.2,0-0.3,0v0.9c0,1.1,0,1.1,0.7,1.1
				c0,0,0.1,0.1,0,0.1c-0.2,0-0.6-0.1-0.9-0.1c-0.5,0-0.8,0-1.1,0.1c-0.1,0,0-0.1,0-0.1c0.7-0.1,0.7-0.1,0.7-1.1v-2.1
				c0-0.8,0-1.1-0.5-1.1c-0.1,0-0.2,0-0.3,0c0,0-0.1-0.1,0-0.1c0.3-0.1,1.1-0.1,1.9-0.1c1.1,0,1.9,0.3,1.9,1.1c0,0.4-0.3,1-1.1,1.3
				C84.4,29.2,85.6,30.5,86.4,30.6C86.4,30.4,86.4,30.6,86.4,30.6z M82.9,25.9c-0.1,0-0.2,0-0.3,0c-0.1,0.1-0.1,0.5-0.1,1v1.2
				c0.1,0,0.2,0,0.3,0c1.1,0,1.5-0.4,1.5-1C84.4,26.2,83.7,25.9,82.9,25.9z"/>
			<path class="st0" d="M83.4,28.4c-0.2,0.1-0.4,0.1-0.6,0.1l0,0c-0.1,0-0.2,0-0.3,0l0,0v0.8c0,1.1,0,1.1,0.7,1.1l0,0
				c0,0,0,0.1,0.1,0.1l0,0c0,0,0,0.1-0.1,0.1l0,0l0,0l0,0c-0.2,0-0.6-0.1-0.9-0.1l0,0c-0.5,0-0.8,0-1.1,0.1l0,0l0,0l0,0
				c-0.1,0-0.1-0.1-0.1-0.1l0,0c0,0,0-0.1,0.1-0.1l0,0c0.7-0.1,0.7,0,0.7-1.1l0,0v-2.1c0-0.8,0-1.1-0.4-1.1l0,0c-0.1,0-0.2,0-0.3,0
				l0,0c-0.1,0-0.1-0.1-0.1-0.1l0,0c0,0,0-0.1,0.1-0.1l0,0c0.3-0.1,1.1-0.1,1.9-0.1l0,0c1.1,0,2,0.3,2,1.1l0,0c0,0.4-0.3,1-1.1,1.3
				l0,0c0.4,1,1.6,2.3,2.4,2.3l0,0c0.1,0,0.1,0.1,0.1,0.1l0,0c0,0,0,0.1-0.1,0.1l0,0l0,0l0,0l0,0l0,0C84.6,30.6,83.8,29.4,83.4,28.4
				L83.4,28.4z M83.4,28.3c0.3,1.1,1.2,2.2,2.9,2.2l0,0l0,0l0,0l0,0l0,0c-0.9,0-2.1-1.3-2.5-2.3l0,0l0,0l0,0c0.8-0.3,1-0.9,1-1.3
				l0,0c0-0.7-0.9-1.1-1.9-1.1l0,0c-0.8,0-1.5,0-1.9,0.1l0,0l0,0l0,0l0,0l0,0l0,0c0.1,0,0.2,0,0.3,0l0,0c0.5,0,0.5,0.3,0.5,1.1l0,0
				v2.1c0,1.1-0.1,1.1-0.7,1.2l0,0l0,0l0,0l0,0l0,0l0,0c0.3-0.1,0.7-0.1,1.1-0.1l0,0c0.3,0,0.7,0,0.9,0.1l0,0l0,0l0,0l0,0l0,0l0,0
				l0,0l0,0l0,0c-0.7-0.1-0.7-0.1-0.7-1.2l0,0v-0.9l0,0c0.1,0,0.1,0,0.3,0l0,0C83,28.4,83.2,28.3,83.4,28.3L83.4,28.3L83.4,28.3
				L83.4,28.3L83.4,28.3z M82.5,28.2L82.5,28.2V27c0-0.5,0-0.9,0.1-1l0,0l0,0l0,0c0.1,0,0.2,0,0.3,0l0,0l0,0l0,0c-0.1,0-0.2,0-0.3,0
				l0,0c-0.1,0.1-0.1,0.5-0.1,1l0,0V28.2c0.1-0.1,0.2-0.1,0.3-0.1l0,0c1.1,0,1.5-0.4,1.5-1l0,0c0-0.9-0.7-1.2-1.4-1.2l0,0l0,0l0,0
				c0.7,0,1.5,0.3,1.5,1.3l0,0c0,0.6-0.4,1-1.5,1l0,0C82.7,28.2,82.6,28.2,82.5,28.2L82.5,28.2z"/>
		</g>
		<g>
			<path class="st0" d="M90.4,27.1l-0.8,1.1v1.1c0,1.1,0,1.1,0.7,1.1c0,0,0.1,0.1,0,0.1c-0.2,0-0.6-0.1-0.9-0.1
				c-0.5,0-0.8,0-1.1,0.1c-0.1,0,0-0.1,0-0.1c0.7-0.1,0.7-0.1,0.7-1.1v-1l-0.7-1c-0.7-1.1-0.9-1.3-1.5-1.3c0,0-0.1-0.1,0-0.1
				c0.3,0.1,0.7,0.1,1.1,0.1c0.3,0,0.7,0,0.9-0.1c0.1,0,0,0.1,0,0.1c-0.7,0.1-0.5,0.3,0.2,1.3l0.5,0.7l0.7-0.9
				c0.7-1,0.8-1.1,0.1-1.1c0,0-0.1-0.1,0-0.1c0.3,0.1,0.5,0.1,0.9,0.1c0.3,0,0.5,0,0.7-0.1c0.1,0,0,0.1,0,0.1
				C91.3,25.9,91.1,26.1,90.4,27.1z"/>
			<path class="st0" d="M88.2,30.4C88.2,30.4,88.2,30.4,88.2,30.4L88.2,30.4c0.7-0.1,0.7-0.1,0.7-1.2l0,0v-1l-0.7-1
				c-0.7-1.1-0.9-1.2-1.5-1.3l0,0c-0.1,0-0.1-0.1-0.1-0.1l0,0c0,0,0-0.1,0.1-0.1l0,0l0,0l0,0c0.3,0.1,0.7,0.1,1.1,0.1l0,0
				c0.3,0,0.7,0,0.9-0.1l0,0l0,0l0,0c0.1,0,0.1,0.1,0.1,0.1l0,0c0,0,0,0.1-0.1,0.1l0,0c-0.3,0-0.4,0.1-0.4,0.2l0,0
				c0,0.1,0.2,0.5,0.6,1.1l0,0l0.5,0.7l0.7-0.9c0.4-0.5,0.6-0.8,0.6-0.9l0,0c0-0.1-0.1-0.1-0.4-0.2l0,0c-0.1,0-0.1-0.1-0.1-0.1l0,0
				c0,0,0-0.1,0.1-0.1l0,0l0,0l0,0c0.3,0.1,0.5,0.1,0.9,0.1l0,0c0.3,0,0.5,0,0.7-0.1l0,0l0,0l0,0c0.1,0,0.1,0.1,0.1,0.1l0,0
				c0,0,0,0.1-0.1,0.1l0,0c-0.7,0.1-0.8,0.2-1.5,1.1l0,0l-0.8,1.1v1.1c0,1.1,0,1.1,0.7,1.1l0,0c0,0,0,0.1,0.1,0.1l0,0
				c0,0,0,0.1-0.1,0.1l0,0l0,0l0,0c-0.2,0-0.6-0.1-0.9-0.1l0,0C88.9,30.4,88.6,30.4,88.2,30.4L88.2,30.4
				C88.2,30.4,88.2,30.4,88.2,30.4L88.2,30.4L88.2,30.4L88.2,30.4z M90.3,30.4L90.3,30.4L90.3,30.4L90.3,30.4L90.3,30.4
				C90.3,30.4,90.3,30.4,90.3,30.4L90.3,30.4C90.3,30.4,90.3,30.4,90.3,30.4L90.3,30.4c-0.7-0.1-0.7-0.2-0.7-1.2l0,0v-1.1l0.8-1.1
				c0.7-0.9,0.9-1.1,1.5-1.1l0,0l0,0l0,0l0,0c-0.2,0-0.4,0.1-0.7,0.1l0,0c-0.4,0-0.6,0-0.9-0.1l0,0l0,0l0,0l0,0l0,0
				c0.3,0.1,0.5,0.1,0.5,0.2l0,0c0,0.2-0.2,0.4-0.6,0.9l0,0L89.4,28l-0.5-0.8c-0.4-0.6-0.6-0.9-0.7-1.1l0,0c0-0.2,0.1-0.2,0.5-0.3
				l0,0l0,0l0,0l0,0l0,0c-0.2,0-0.6,0.1-0.9,0.1l0,0c-0.4,0-0.8,0-1.1-0.1l0,0l0,0l0,0l0,0l0,0c0.7,0.1,0.9,0.3,1.6,1.3l0,0l0.7,1v1
				c0,1.1-0.1,1.1-0.7,1.2l0,0l0,0l0,0l0,0l0,0l0,0c0.3-0.1,0.7-0.1,1.1-0.1l0,0C89.6,30.4,90.1,30.4,90.3,30.4L90.3,30.4z
				 M88.7,25.9L88.7,25.9L88.7,25.9L88.7,25.9L88.7,25.9L88.7,25.9z"/>
		</g>
		<g>
			<path class="st0" d="M100.7,27.1v2.1c0,0.3,0,1,0.1,1.3h-0.1l-3.7-3.7v2.4c0,0.9,0,1.1,0.7,1.1c0,0,0.1,0.1,0,0.1
				c-0.2,0-0.5-0.1-0.7-0.1c-0.5,0-0.6,0-0.9,0.1c-0.1,0,0-0.1,0-0.1c0.7-0.1,0.7-0.1,0.7-1.1v-2.5c0-0.3-0.5-0.7-0.9-0.8v-0.1
				c0.3,0.1,0.6,0.1,1.1,0.1l3.6,3.6v-2.4c0-1,0-1.1-0.7-1.1v-0.1c0.3,0.1,0.5,0.1,0.9,0.1c0.3,0,0.5,0,0.7-0.1c0.1,0,0,0.1,0,0.1
				C100.7,25.9,100.7,26.1,100.7,27.1z"/>
			<path class="st0" d="M100.6,30.5l-3.7-3.7v2.3c0,1,0,1.1,0.7,1.1l0,0c0,0,0,0.1,0.1,0.1l0,0c0,0,0,0.1-0.1,0.1l0,0l0,0l0,0
				c-0.2,0-0.5-0.1-0.7-0.1l0,0c-0.5,0-0.6,0-0.9,0.1l0,0l0,0l0,0c-0.1,0-0.1-0.1-0.1-0.1l0,0c0,0,0-0.1,0.1-0.1l0,0
				c0.7-0.1,0.7-0.1,0.7-1.1l0,0v-2.5c0-0.3-0.5-0.7-0.8-0.7l0,0c-0.1,0-0.1-0.1-0.1-0.1l0,0c0,0,0-0.1,0.1-0.1l0,0l0,0l0,0
				c0.3,0.1,0.6,0.1,1,0.1l0,0l0,0l3.5,3.5v-2.3c0-1,0-1.1-0.7-1.1l0,0c-0.1,0-0.1-0.1-0.1-0.1l0,0c0,0,0-0.1,0.1-0.1l0,0l0,0l0,0
				c0.3,0.1,0.5,0.1,0.9,0.1l0,0c0.3,0,0.5,0,0.7-0.1l0,0l0,0l0,0c0.1,0,0.1,0.1,0.1,0.1l0,0c0,0,0,0.1-0.1,0.1l0,0
				c-0.7,0.1-0.7,0.1-0.7,1.1l0,0v2.1c0,0.3,0,1,0.1,1.3l0,0c0,0.1-0.1,0.1-0.1,0.1l0,0C100.7,30.6,100.6,30.6,100.6,30.5
				L100.6,30.5z M100.7,30.5L100.7,30.5L100.7,30.5L100.7,30.5L100.7,30.5c0-0.3,0-0.9,0-1.3l0,0v-2.1c0-0.9,0-1.1,0.7-1.2l0,0l0,0
				l0,0l0,0l0,0c-0.2,0-0.5,0.1-0.7,0.1l0,0c-0.4,0-0.6,0-0.9-0.1l0,0l0,0l0,0l0,0l0,0c0.7,0.1,0.7,0.2,0.7,1.2l0,0v2.5l-3.6-3.6
				c-0.4,0-0.7,0-1-0.1l0,0l0,0l0,0l0,0l0,0c0.4,0.1,0.9,0.5,0.9,0.8l0,0v2.5c0,1-0.1,1.1-0.7,1.2l0,0l0,0l0,0l0,0l0,0l0,0l0,0l0,0
				c0.3,0,0.5-0.1,0.9-0.1l0,0c0.3,0,0.5,0,0.7,0.1l0,0l0,0l0,0l0,0l0,0l0,0l0,0l0,0l0,0c-0.7-0.1-0.7-0.2-0.7-1.2l0,0v-2.5
				L100.7,30.5L100.7,30.5z M101.4,25.9C101.4,25.9,101.4,25.9,101.4,25.9L101.4,25.9L101.4,25.9L101.4,25.9L101.4,25.9z"/>
		</g>
		<g>
			<path class="st0" d="M106.6,30.3c-0.1,0.1-0.1,0.1-0.2,0.1c-0.3,0-0.7,0-1.3,0c-0.7,0-1.5,0-2.1,0.1c-0.1,0,0-0.1,0-0.1
				c0.8-0.1,0.8-0.1,0.8-1.1v-2.1c0-1.1,0-1.1-0.8-1.1c0,0-0.1-0.1,0-0.1c0.5,0.1,1.3,0.1,2.1,0.1c0.5,0,1.1,0,1.5-0.1
				c0,0.1-0.1,0.2-0.1,0.4c0,0.1,0,0.2,0,0.3h-0.1c-0.1-0.3-0.2-0.4-1.2-0.4h-0.7c0,0.2-0.1,0.5-0.1,1v0.9h0.8
				c0.9,0,0.8-0.1,0.8-0.3h0.1c0,0.1-0.1,0.3-0.1,0.5c0,0.1,0,0.2,0,0.3h-0.1c-0.1-0.2-0.1-0.3-0.8-0.3h-0.8v1.1c0,0.9,0.1,1,0.5,1
				h0.4c1.1,0,1.3-0.1,1.3-0.6h0.1C106.7,29.8,106.6,30.2,106.6,30.3z"/>
			<path class="st0" d="M103,30.4C103,30.4,103,30.4,103,30.4L103,30.4c0.9-0.1,0.8-0.1,0.8-1.2l0,0v-2.1c0-1.1,0-1-0.7-1.1l0,0
				c-0.1,0-0.1-0.1-0.1-0.1l0,0c0,0,0-0.1,0.1-0.1l0,0l0,0l0,0c0.5,0.1,1.3,0.1,2,0.1l0,0c0.5,0,1.1,0,1.5-0.1l0,0h0.1v0.1
				c0,0.1-0.1,0.2-0.1,0.4l0,0c0,0.1,0,0.2,0,0.3l0,0c0,0.1-0.1,0.1-0.1,0.1l0,0c0,0,0,0-0.1,0l0,0c0,0,0,0-0.1,0l0,0
				c-0.1-0.3-0.2-0.4-1.2-0.4l0,0h-0.7c0,0.2-0.1,0.5-0.1,0.9l0,0v0.9h0.8c0.9,0,0.7-0.1,0.8-0.3l0,0h0.1l0,0l0,0l0,0l0,0l0,0l0,0
				l0,0l0,0l0,0l0,0c0,0.1-0.1,0.3-0.1,0.5l0,0c0,0.1,0,0.2,0,0.3l0,0l0,0l0,0c0,0.1-0.1,0.1-0.1,0.1l0,0c0,0,0,0-0.1,0l0,0
				c0,0,0,0-0.1,0l0,0c-0.1-0.2-0.1-0.3-0.8-0.3l0,0h-0.8v1c0,0.9,0.1,1,0.5,1l0,0h0.4c1.2,0,1.2-0.1,1.3-0.6l0,0c0,0,0,0,0.1,0l0,0
				l0,0l0,0c0,0,0.1,0,0.1,0.1l0,0c0,0.2-0.1,0.5-0.1,0.7l0,0l0,0l0,0c0,0.1-0.1,0.1-0.2,0.1l0,0c-0.3,0-0.7-0.1-1.3-0.1l0,0
				C104.3,30.4,103.6,30.4,103,30.4L103,30.4C103,30.4,103,30.4,103,30.4L103,30.4L103,30.4L103,30.4z M103,30.4L103,30.4L103,30.4
				L103,30.4L103,30.4z M103.8,27.1v2.1c0,1.1-0.1,1.1-0.8,1.2l0,0l0,0l0,0l0,0l0,0l0,0c0.5,0,1.3-0.1,2.1-0.1l0,0
				c0.5,0,1,0.1,1.3,0.1l0,0c0.1,0,0.1,0,0.1-0.1l0,0l0,0c0.1-0.1,0.1-0.5,0.1-0.6l0,0l0,0l0,0l0,0l0,0c-0.1,0.5-0.2,0.6-1.3,0.6
				l0,0h-0.5c-0.2,0-0.3,0-0.4-0.2l0,0c-0.1-0.1-0.1-0.4-0.1-0.9l0,0v-1.1h0.8c0.7,0,0.8,0.1,0.8,0.3l0,0l0,0l0,0l0,0l0,0
				c0-0.1,0-0.2,0-0.3l0,0c0-0.1,0-0.3,0.1-0.4l0,0l0,0l0,0c0,0,0,0-0.1,0l0,0c-0.1,0.2-0.1,0.3-0.9,0.3l0,0h-0.8V27
				c0-0.5,0-0.8,0.1-1l0,0l0,0h0.7c1,0,1.2,0.1,1.3,0.5l0,0l0,0l0,0l0,0l0,0c0-0.1,0-0.2,0-0.3l0,0c0-0.1,0-0.3,0.1-0.3l0,0
				c-0.4,0-0.9,0.1-1.4,0.1l0,0c-0.7,0-1.5,0-2.1-0.1l0,0l0,0l0,0l0,0l0,0C103.8,25.9,103.8,25.9,103.8,27.1L103.8,27.1z
				 M106.6,29.6L106.6,29.6L106.6,29.6L106.6,29.6z"/>
		</g>
		<g>
			<path class="st0" d="M113.2,26.2c0,0.1,0,0.3,0,0.4h-0.1c-0.1-0.3-0.2-0.5-1.2-0.5h-0.8v3.1c0,1.1,0,1.1,0.7,1.1
				c0,0,0.1,0.1,0,0.1c-0.2,0-0.6-0.1-0.9-0.1c-0.5,0-0.8,0-1.1,0.1c-0.1,0,0-0.1,0-0.1c0.7-0.1,0.7-0.1,0.7-1.1v-3.1h-0.9
				c-0.9,0-1.1,0.1-1.2,0.5h-0.1c0-0.1,0.1-0.4,0.1-0.6c0-0.1,0-0.3-0.1-0.4h0.1c0.1,0.3,0.1,0.3,1.2,0.3h2.3c1.1,0,1.2,0,1.3-0.3
				h0.1C113.2,25.8,113.2,26,113.2,26.2z"/>
			<path class="st0" d="M109.7,30.4C109.7,30.4,109.7,30.4,109.7,30.4L109.7,30.4c0.7-0.1,0.7-0.1,0.7-1.2l0,0v-3.1h-0.8
				c-1,0-1.1,0.1-1.2,0.5l0,0c0,0.1,0,0,0,0l0,0l0,0l0,0c0,0,0,0-0.1,0l0,0l0,0l0,0c0,0,0,0,0-0.1l0,0l0,0l0,0l0,0l0,0
				c0-0.1,0.1-0.4,0.1-0.6l0,0c0-0.1,0-0.3-0.1-0.4l0,0c0-0.1,0.1-0.1,0.1-0.1l0,0h0.1l0,0l0,0l0,0c0.1,0.2,0.1,0.3,1.2,0.3l0,0h2.3
				c1.1,0,1.1,0,1.2-0.3l0,0c0-0.1,0,0,0,0l0,0l0,0l0,0c0,0,0,0,0.1,0l0,0c0,0,0.1,0,0.1,0.1l0,0l0,0l0,0c-0.1,0.1-0.1,0.3-0.1,0.6
				l0,0c0,0.1,0,0.3,0,0.4l0,0c0,0.1,0,0-0.1,0.1l0,0l0,0l0,0h-0.1l0,0l0,0l0,0l0,0l0,0c-0.1-0.3-0.1-0.5-1.1-0.5l0,0h-0.8v3.1
				c0,1.1,0,1.1,0.7,1.1l0,0c0.1,0,0.1,0.1,0.1,0.1l0,0c0,0,0,0.1-0.1,0.1l0,0l0,0l0,0c-0.2,0-0.6-0.1-0.9-0.1l0,0
				C110.4,30.4,110.1,30.4,109.7,30.4L109.7,30.4C109.8,30.4,109.8,30.4,109.7,30.4L109.7,30.4C109.8,30.4,109.7,30.4,109.7,30.4
				L109.7,30.4z M111.9,30.4L111.9,30.4L111.9,30.4L111.9,30.4L111.9,30.4C111.9,30.4,111.9,30.4,111.9,30.4L111.9,30.4
				C111.9,30.4,111.9,30.4,111.9,30.4L111.9,30.4c-0.7-0.1-0.7-0.1-0.7-1.2l0,0v-3.1h0.9c1,0,1.1,0.2,1.2,0.5l0,0c0,0,0,0,0.1,0l0,0
				l0,0l0,0c0-0.1,0-0.3,0-0.3l0,0c0-0.3,0-0.4,0.1-0.6l0,0l0,0l0,0c-0.1,0.3-0.2,0.3-1.3,0.3l0,0h-2.3c-1.1,0-1.2,0-1.2-0.3l0,0
				l0,0l0,0c0,0,0,0-0.1,0l0,0c0,0.1,0,0.2,0,0.3l0,0c0,0.2,0,0.4,0,0.6l0,0l0,0l0,0c0.1-0.3,0.3-0.5,1.3-0.5l0,0h0.9v3.1
				c0,1.1-0.1,1.1-0.7,1.2l0,0l0,0l0,0l0,0l0,0l0,0c0.3,0,0.7-0.1,1.1-0.1l0,0C111.2,30.4,111.6,30.4,111.9,30.4L111.9,30.4
				L111.9,30.4L111.9,30.4L111.9,30.4L111.9,30.4z"/>
		</g>
		<g>
			<path class="st0" d="M121.1,27.1l-1.5,3.4h-0.1l-1.1-3.1l-1.4,3.1h-0.1l-1.5-3.4c-0.3-0.9-0.5-1.1-1.1-1.1v-0.1
				c0.2,0,0.5,0.1,0.8,0.1c0.4,0,0.9,0,1.2-0.1c0.1,0,0,0.1,0,0.1c-0.4,0-0.5,0.1-0.5,0.3c0,0.1,0.2,0.6,0.3,0.9l1.1,2.6l1.1-2.5
				l-0.1-0.1c-0.3-0.9-0.5-1.1-1.1-1.1v-0.1c0.2,0,0.5,0.1,0.8,0.1c0.4,0,1,0,1.3-0.1c0.1,0,0,0.1,0,0.1c-0.5,0.1-0.7,0.1-0.7,0.3
				c0,0.1,0.1,0.4,0.2,0.9l0.9,2.6l1.2-2.8c0.2-0.4,0.3-0.7,0.3-0.8c0-0.2-0.1-0.3-0.5-0.3c0,0-0.1-0.1,0-0.1c0.2,0,0.5,0.1,0.7,0.1
				c0.4,0,0.4,0,0.7-0.1c0.1,0,0,0.1,0,0.1C121.7,25.9,121.5,26.3,121.1,27.1z"/>
			<path class="st0" d="M119.5,30.5l-1.1-3l-1.4,3c0,0-0.1,0-0.1,0.1l0,0c0,0-0.1,0-0.1-0.1l0,0l-1.5-3.4c-0.3-0.9-0.5-1.1-1.1-1.1
				l0,0c-0.1,0-0.1-0.1-0.1-0.1l0,0c0,0,0-0.1,0.1-0.1l0,0l0,0l0,0c0.2,0,0.5,0.1,0.8,0.1l0,0c0.4,0,0.9,0,1.2-0.1l0,0l0,0l0,0
				c0.1,0,0.1,0.1,0.1,0.1l0,0c0,0,0,0.1-0.1,0.1l0,0c-0.4,0-0.5,0.1-0.5,0.3l0,0c0,0.1,0.2,0.6,0.3,0.9l0,0l1.1,2.5l1.1-2.4
				l-0.1-0.1c-0.3-0.9-0.5-1.1-1-1.1l0,0c-0.1,0-0.1-0.1-0.1-0.1l0,0c0,0,0-0.1,0.1-0.1l0,0l0,0l0,0c0.2,0,0.5,0.1,0.8,0.1l0,0
				c0.4,0,1,0,1.3-0.1l0,0l0,0l0,0c0.1,0,0.1,0.1,0.1,0.1l0,0c0,0,0,0.1-0.1,0.1l0,0c-0.5,0.1-0.6,0.1-0.6,0.3l0,0
				c0,0.1,0.1,0.4,0.2,0.8l0,0l0.9,2.5l1.3-2.6c0.2-0.4,0.3-0.7,0.3-0.8l0,0c0-0.1-0.1-0.2-0.5-0.3l0,0c-0.1,0-0.1-0.1-0.1-0.1l0,0
				c0,0,0-0.1,0.1-0.1l0,0l0,0l0,0c0.2,0,0.5,0.1,0.7,0.1l0,0c0.4,0,0.4,0,0.7-0.1l0,0l0,0l0,0c0.1,0,0.1,0.1,0.1,0.1l0,0
				c0,0,0,0.1-0.1,0.1l0,0c-0.5,0.1-0.6,0.3-0.9,1.1l0,0l-1.5,3.4C119.7,30.5,119.6,30.5,119.5,30.5L119.5,30.5
				C119.6,30.6,119.5,30.6,119.5,30.5L119.5,30.5z M117,30.5L117,30.5l1.5-3.1l1.2,3.1l0,0l0,0l0,0l0,0l0,0l1.5-3.4
				c0.3-0.8,0.5-1.1,1-1.2l0,0l0,0l0,0l0,0l0,0c-0.3,0.1-0.3,0.1-0.7,0.1l0,0c-0.3,0-0.5,0-0.7-0.1l0,0l0,0l0,0l0,0l0,0
				c0.4,0,0.5,0.1,0.5,0.3l0,0c0,0.2-0.1,0.4-0.3,0.9l0,0l-1.1,2.7l-0.9-2.7c-0.1-0.4-0.2-0.7-0.2-0.9l0,0c0-0.3,0.2-0.3,0.7-0.3
				l0,0l0,0l0,0l0,0l0,0c-0.3,0.1-0.9,0.1-1.3,0.1l0,0c-0.3,0-0.6,0-0.8-0.1l0,0l0,0l0,0l0,0l0,0c0.6,0.1,0.7,0.3,1.1,1.2l0,0
				l0.1,0.1l-1.1,2.5l-1.1-2.6c-0.1-0.3-0.3-0.7-0.3-0.9l0,0c0-0.2,0.2-0.3,0.6-0.3l0,0l0,0l0,0l0,0l0,0c-0.3,0.1-0.8,0.1-1.2,0.1
				l0,0c-0.3,0-0.6,0-0.8-0.1l0,0l0,0l0,0l0,0l0,0c0.6,0.1,0.7,0.3,1.1,1.2l0,0L117,30.5C116.9,30.5,116.9,30.5,117,30.5L117,30.5
				L117,30.5L117,30.5L117,30.5L117,30.5z M122.2,25.9L122.2,25.9L122.2,25.9L122.2,25.9L122.2,25.9z M116.4,25.9L116.4,25.9
				L116.4,25.9L116.4,25.9L116.4,25.9z M119.3,25.9L119.3,25.9L119.3,25.9L119.3,25.9z"/>
		</g>
		<g>
			<path class="st0" d="M125.9,30.5c-1.5,0-2.7-1.1-2.7-2.3c0-1.1,1.1-2.5,2.8-2.5c1.6,0,2.7,1.1,2.7,2.3
				C128.7,29.2,127.5,30.5,125.9,30.5z M125.8,25.9c-1.1,0-2,0.7-2,2.1c0,1.6,1.1,2.4,2.2,2.4c1.1,0,2-0.7,2-2.1
				C128,26.8,126.9,25.9,125.8,25.9z"/>
			<path class="st0" d="M123.2,28.2c0-1.2,1.2-2.5,2.8-2.5l0,0c1.6,0,2.7,1.1,2.7,2.3l0,0c0,1.2-1.1,2.5-2.8,2.5l0,0l0,0l0,0
				c1.6,0,2.7-1.3,2.7-2.4l0,0c0-1.2-1.1-2.3-2.6-2.3l0,0C124.4,25.7,123.3,27.1,123.2,28.2L123.2,28.2c0.1,1.2,1.1,2.3,2.7,2.3l0,0
				l0,0l0,0C124.3,30.6,123.2,29.4,123.2,28.2L123.2,28.2z M123.8,28c0-1.3,0.9-2.1,2-2.1l0,0l0,0l0,0
				C124.7,25.9,123.9,26.7,123.8,28L123.8,28c0.1,1.5,1.1,2.3,2.2,2.3l0,0c1.1,0,1.9-0.7,1.9-2l0,0c0-1.5-1.1-2.3-2.2-2.3l0,0l0,0
				l0,0c1.1,0,2.2,0.8,2.2,2.4l0,0c0,1.3-0.9,2.1-2,2.1l0,0C125,30.4,123.8,29.6,123.8,28L123.8,28z"/>
		</g>
		<g>
			<path class="st0" d="M135.5,30.6c-1.7,0-2.6-1.1-2.9-2.2c-0.2,0.1-0.5,0.1-0.6,0.1c-0.2,0-0.2,0-0.3,0v0.9c0,1.1,0,1.1,0.7,1.1
				c0,0,0.1,0.1,0,0.1c-0.2,0-0.6-0.1-0.9-0.1c-0.5,0-0.8,0-1.1,0.1c-0.1,0,0-0.1,0-0.1c0.7-0.1,0.7-0.1,0.7-1.1v-2.1
				c0-0.8,0-1.1-0.5-1.1c-0.1,0-0.2,0-0.3,0c0,0-0.1-0.1,0-0.1c0.3-0.1,1.1-0.1,1.9-0.1c1.1,0,1.9,0.3,1.9,1.1c0,0.4-0.3,1-1.1,1.3
				C133.5,29.2,134.7,30.5,135.5,30.6C135.5,30.4,135.6,30.6,135.5,30.6z M132.1,25.9c-0.1,0-0.2,0-0.3,0c-0.1,0.1-0.1,0.5-0.1,1
				v1.2c0.1,0,0.2,0,0.3,0c1.1,0,1.5-0.4,1.5-1C133.5,26.2,132.9,25.9,132.1,25.9z"/>
			<path class="st0" d="M132.6,28.4c-0.2,0.1-0.4,0.1-0.6,0.1l0,0c-0.1,0-0.2,0-0.3,0l0,0v0.8c0,1.1,0,1.1,0.7,1.1l0,0
				c0,0,0,0.1,0.1,0.1l0,0c0,0,0,0.1-0.1,0.1l0,0l0,0l0,0c-0.2,0-0.6-0.1-0.9-0.1l0,0c-0.5,0-0.8,0-1.1,0.1l0,0l0,0l0,0
				c-0.1,0-0.1-0.1-0.1-0.1l0,0c0,0,0-0.1,0.1-0.1l0,0c0.7-0.1,0.7,0,0.7-1.1l0,0v-2.1c0-0.8,0-1.1-0.4-1.1l0,0c-0.1,0-0.2,0-0.3,0
				l0,0c-0.1,0-0.1-0.1-0.1-0.1l0,0c0,0,0-0.1,0.1-0.1l0,0c0.3-0.1,1.1-0.1,1.9-0.1l0,0c1.1,0,2,0.3,2,1.1l0,0c0,0.4-0.3,1-1.1,1.3
				l0,0c0.4,1,1.6,2.3,2.4,2.3l0,0c0.1,0,0.1,0.1,0.1,0.1l0,0c0,0,0,0.1-0.1,0.1l0,0l0,0l0,0l0,0l0,0
				C133.8,30.6,132.9,29.4,132.6,28.4L132.6,28.4z M132.6,28.3c0.3,1.1,1.2,2.2,2.9,2.2l0,0l0,0l0,0l0,0l0,0c-0.9,0-2.1-1.3-2.5-2.3
				l0,0l0,0l0,0c0.8-0.3,1-0.9,1-1.3l0,0c0-0.7-0.9-1.1-1.9-1.1l0,0c-0.8,0-1.5,0-1.9,0.1l0,0l0,0l0,0l0,0l0,0l0,0
				c0.1,0,0.2,0,0.3,0l0,0c0.5,0,0.5,0.3,0.5,1.1l0,0v2.1c0,1.1-0.1,1.1-0.7,1.2l0,0l0,0l0,0l0,0l0,0l0,0c0.3-0.1,0.7-0.1,1.1-0.1
				l0,0c0.3,0,0.7,0,0.9,0.1l0,0l0,0l0,0l0,0l0,0l0,0l0,0l0,0l0,0c-0.7-0.1-0.7-0.1-0.7-1.2l0,0v-0.9l0,0c0.1,0,0.1,0,0.3,0l0,0
				C132.2,28.4,132.4,28.3,132.6,28.3L132.6,28.3L132.6,28.3L132.6,28.3L132.6,28.3z M131.6,28.2L131.6,28.2V27c0-0.5,0-0.9,0.1-1
				l0,0l0,0l0,0c0.1,0,0.2,0,0.3,0l0,0l0,0l0,0c-0.1,0-0.2,0-0.3,0l0,0c-0.1,0.1-0.1,0.5-0.1,1l0,0V28.2c0.1-0.1,0.2-0.1,0.3-0.1
				l0,0c1.1,0,1.5-0.4,1.5-1l0,0c0-0.9-0.7-1.2-1.4-1.2l0,0l0,0l0,0c0.7,0,1.5,0.3,1.5,1.3l0,0c0,0.6-0.4,1-1.5,1l0,0
				C131.8,28.2,131.8,28.2,131.6,28.2L131.6,28.2z"/>
		</g>
		<g>
			<path class="st0" d="M138.3,30.4c-0.2,0-0.5-0.1-0.9-0.1c-0.5,0-0.9,0-1.1,0.1c-0.1,0,0-0.1,0-0.1c0.8-0.1,0.8-0.1,0.8-1.1v-2.1
				c0-1.1,0-1.1-0.8-1.1v-0.1c0.3,0.1,0.7,0.1,1.1,0.1c0.3,0,0.6,0,0.9-0.1c0.1,0,0,0.1,0,0.1c-0.6,0.1-0.7,0.1-0.7,1.1v2.1
				C137.7,30.3,137.7,30.4,138.3,30.4C138.3,30.4,138.4,30.4,138.3,30.4z M140.5,30.4c-0.4,0-0.8,0-1.1,0.1c-0.1,0,0-0.1,0-0.1
				c0.3-0.1,0.5-0.1,0.4-0.3c-0.1-0.2-0.5-0.5-0.9-0.9l-1-1l1.1-1.1c0.3-0.3,0.7-0.7,0.8-0.9c0.1-0.2-0.1-0.2-0.4-0.3
				c0,0-0.1-0.1,0-0.1c0.3,0,0.5,0.1,0.9,0.1c0.3,0,0.5,0,0.7-0.1c0.1,0,0,0.1,0,0.1c-0.7,0.1-0.9,0.3-1.7,1.1l-0.9,0.9l1.4,1.3
				c0.9,0.9,1.2,1.1,1.8,1.1c0,0,0.1,0.1,0,0.1C141.2,30.4,140.8,30.4,140.5,30.4z"/>
			<path class="st0" d="M139.3,30.4C139.3,30.4,139.3,30.4,139.3,30.4L139.3,30.4c0.3-0.1,0.5-0.1,0.5-0.2l0,0c0,0,0-0.1-0.1-0.1
				l0,0c-0.1-0.2-0.5-0.5-0.9-0.9l0,0l-1.1-1l1.1-1.2c0.3-0.3,0.7-0.7,0.8-0.9l0,0c0-0.1,0-0.1,0-0.1l0,0c0-0.1-0.1-0.1-0.4-0.1l0,0
				c-0.1,0-0.1-0.1-0.1-0.1l0,0c0,0,0-0.1,0.1-0.1l0,0l0,0l0,0c0.3,0,0.5,0.1,0.9,0.1l0,0c0.3,0,0.5,0,0.7-0.1l0,0l0,0l0,0
				c0.1,0,0.1,0.1,0.1,0.1l0,0c0,0,0,0.1-0.1,0.1l0,0c-0.7,0.1-0.9,0.3-1.7,1.1l0,0l-0.9,0.9l1.3,1.3c0.9,0.9,1.1,1.1,1.8,1.1l0,0
				c0.1,0,0.1,0.1,0.1,0.1l0,0c0,0,0,0.1-0.1,0.1l0,0l0,0l0,0c-0.2,0-0.7-0.1-0.9-0.1l0,0l0,0l0,0c0.3,0,0.7,0,0.9,0.1l0,0l0,0l0,0
				l0,0l0,0l0,0l0,0l0,0l0,0c-0.7-0.1-0.9-0.3-1.9-1.1l0,0l-1.4-1.3l0.9-0.9c0.9-0.9,1.1-1.1,1.7-1.1l0,0l0,0l0,0l0,0l0,0
				c-0.2,0-0.4,0.1-0.7,0.1l0,0c-0.3,0-0.6,0-0.9-0.1l0,0l0,0l0,0l0,0l0,0c0.3,0.1,0.4,0.1,0.5,0.2l0,0c0,0.1,0,0.1-0.1,0.1l0,0
				c-0.1,0.2-0.5,0.5-0.8,0.9l0,0l-1.1,1.1l1,0.9c0.4,0.3,0.7,0.7,0.9,0.9l0,0c0,0.1,0.1,0.1,0.1,0.1l0,0
				C139.7,30.4,139.6,30.4,139.3,30.4L139.3,30.4L139.3,30.4C139.3,30.4,139.3,30.4,139.3,30.4L139.3,30.4L139.3,30.4L139.3,30.4
				c0.4,0,0.8-0.1,1.2-0.1l0,0l0,0l0,0C140,30.4,139.7,30.4,139.3,30.4L139.3,30.4C139.3,30.4,139.3,30.4,139.3,30.4L139.3,30.4
				L139.3,30.4L139.3,30.4z M140.8,25.9L140.8,25.9L140.8,25.9L140.8,25.9L140.8,25.9L140.8,25.9z M136.3,30.4
				C136.3,30.4,136.3,30.4,136.3,30.4L136.3,30.4c0.9-0.1,0.8-0.1,0.8-1.2l0,0v-2.1c0-1.1,0-1-0.7-1.1l0,0c-0.1,0-0.1-0.1-0.1-0.1
				l0,0c0,0,0-0.1,0.1-0.1l0,0l0,0l0,0c0.3,0.1,0.7,0.1,1.1,0.1l0,0c0.3,0,0.6,0,0.9-0.1l0,0l0,0l0,0c0.1,0,0.1,0.1,0.1,0.1l0,0
				c0,0,0,0.1-0.1,0.1l0,0c-0.6,0.1-0.6,0.1-0.6,1.1l0,0v2.1c0,1.1,0,1.1,0.7,1.1l0,0c0.1,0,0,0.1,0,0.1l0,0c0,0,0,0.1-0.1,0.1l0,0
				l0,0l0,0l0,0c-0.2,0-0.5-0.1-0.9-0.1l0,0C137.1,30.4,136.6,30.4,136.3,30.4L136.3,30.4C136.3,30.4,136.3,30.4,136.3,30.4
				L136.3,30.4L136.3,30.4L136.3,30.4z M137.1,27.1v2.1c0,1.1-0.1,1.1-0.8,1.2l0,0l0,0l0,0l0,0l0,0l0,0c0.3,0,0.7-0.1,1.1-0.1l0,0
				c0.3,0,0.6,0,0.9,0.1l0,0l0,0l0,0l0,0l0,0l0,0l0,0c-0.6-0.1-0.7-0.1-0.7-1.2l0,0v-2.1c0-1,0.1-1.1,0.7-1.2l0,0l0,0l0,0l0,0l0,0
				c-0.2,0-0.5,0.1-0.9,0.1l0,0c-0.4,0-0.9,0-1.1-0.1l0,0l0,0l0,0l0,0l0,0C137.1,25.9,137.1,25.9,137.1,27.1L137.1,27.1z
				 M138.3,25.9L138.3,25.9L138.3,25.9L138.3,25.9L138.3,25.9z"/>
		</g>
	</g>
</g>
<g>
	<g>
		<path class="st1" d="M34.8,12.8c-1.1,0-2.2,0.4-3.1,1.2s-1.6,2-1.6,3.5c0,1.2,0,4.4,0,7.3s0,5.4,0,5.4c0,0.5,0.4,0.9,0.9,0.9l0,0
			c0.5,0,0.9-0.4,0.9-0.9c0,0,0-10.2,0-12.7c0-0.9,0.4-1.7,1-2.1c0.6-0.5,1.3-0.8,1.9-0.8c0.7,0,1.4,0.3,1.9,0.7
			c0.5,0.5,0.7,1,0.8,1.6c0,0.6-0.3,1.1-0.6,1.5c-0.2,0.3-0.5,0.4-0.7,0.5c0.2-0.3,0.3-0.7,0.3-1.1c0-1-0.8-1.8-1.8-1.8
			c-0.7,0-1.2,0.3-1.5,0.9c-0.2,0.3-0.4,0.7-0.4,1.3c0,0.4,0.1,0.9,0.3,1.2c0.3,0.5,0.8,0.9,1.3,1.1c0.5,0.2,0.9,0.3,1.5,0.3
			c0.9,0,1.7-0.5,2.3-1.1c0.6-0.7,1.1-1.7,1.1-2.7C39.3,14.6,37.3,12.8,34.8,12.8z"/>
		<path class="st1" d="M5.9,16.9c0,1.1,0.5,2.1,1.1,2.7c0.7,0.7,1.5,1.1,2.3,1.1c0.5,0,1-0.1,1.5-0.3c0.5-0.1,1-0.5,1.3-1
			c0.2-0.3,0.3-0.8,0.3-1.2c0-0.5-0.2-0.9-0.4-1.3c-0.3-0.5-0.9-0.9-1.5-0.9c-1,0-1.8,0.8-1.8,1.8c0,0.4,0.1,0.8,0.3,1.1
			c-0.2-0.1-0.5-0.3-0.7-0.5c-0.3-0.4-0.6-0.9-0.6-1.5c0-0.5,0.3-1.1,0.8-1.6c0.5-0.5,1.2-0.7,1.9-0.7c0.5,0,1.3,0.3,1.9,0.8
			c0.6,0.5,1,1.2,1,2.1c0,2.5,0,12.7,0,12.7c0,0.5,0.4,0.9,0.9,0.9l0,0c0.5,0,0.9-0.4,0.9-0.9c0,0,0-2.5,0-5.4s0-6,0-7.3
			c0-1.5-0.7-2.7-1.6-3.5c-1.1-0.7-2.2-1.1-3.2-1.1C8,12.8,6,14.6,5.9,16.9z"/>
		<path class="st1" d="M17.6,30.4V17.6c0-0.5,0.5-1,1-1l0,0c0.5,0,1,0.5,1,1l0,0v12.8c0,0.5-0.5,1-1,1l0,0
			C18,31.4,17.6,31,17.6,30.4L17.6,30.4z"/>
		<path class="st1" d="M21.6,30.4V17.6c0-0.5,0.5-1,1-1l0,0c0.5,0,1,0.5,1,1l0,0v12.8c0,0.5-0.5,1-1,1l0,0
			C22.1,31.4,21.6,31,21.6,30.4L21.6,30.4z"/>
		<path class="st1" d="M25.7,30.4V17.6c0-0.5,0.5-1,1-1l0,0c0.5,0,1,0.5,1,1l0,0v12.8c0,0.5-0.5,1-1,1l0,0
			C26.2,31.4,25.7,31,25.7,30.4L25.7,30.4z"/>
		<path class="st1" d="M17,15c-0.5,0-0.9-0.4-0.9-0.9l0,0c0-0.5,0.4-0.9,0.9-0.9l0,0h11.1c0.5,0,0.9,0.4,0.9,0.9l0,0
			c0,0.5-0.4,0.9-0.9,0.9l0,0H17L17,15z"/>
		<path class="st1" d="M12.8,12.1c-0.5,0-0.9-0.4-0.9-0.9l0,0c0-0.5,0.4-0.9,0.9-0.9l0,0h19.5c0.5,0,0.9,0.4,0.9,0.9l0,0
			c0,0.5-0.4,0.9-0.9,0.9l0,0L12.8,12.1L12.8,12.1z"/>
	</g>
	<g>
		<path class="st1" d="M32.9,30.4v0.5v0.2v0.2v0.2v0.2h-0.3v-1.3h-0.3h-0.1h-0.1v-0.2h1.2v0.2H32.9z"/>
		<path class="st1" d="M34.8,31.7v-0.6v-0.6l0,0l-0.2,0.6l-0.3,0.6h-0.3l-0.2-0.6l-0.1-0.3l-0.1-0.3l0,0v1.3h-0.2V31v-0.4v-0.4h0.4
			l0.2,0.5l0.1,0.3l0.1,0.4l0,0l0.4-1.1H35V31v0.7H34.8z"/>
	</g>
</g>
</svg>
